info face="Impact" size=-55 bold=0 italic=0 charset="" unicode=1 stretchH=100 smooth=1 aa=1 padding=0,0,0,0 spacing=1,1 outline=1
common lineHeight=67 base=55 scaleW=512 scaleH=256 pages=2 packed=0 alphaChnl=1 redChnl=0 greenChnl=0 blueChnl=0
page id=0 file="Font55Impact_o1_0.png"
page id=1 file="Font55Impact_o1_1.png"
chars count=191
char id=32   x=504   y=0     width=5     height=3     xoffset=-2    yoffset=65    xadvance=10    page=0  chnl=15
char id=33   x=146   y=93    width=16    height=45    xoffset=0     yoffset=11    xadvance=15    page=1  chnl=15
char id=34   x=394   y=174   width=22    height=16    xoffset=-1    yoffset=11    xadvance=20    page=1  chnl=15
char id=35   x=385   y=92    width=36    height=41    xoffset=-1    yoffset=15    xadvance=34    page=1  chnl=15
char id=36   x=290   y=56    width=30    height=52    xoffset=0     yoffset=8     xadvance=30    page=0  chnl=15
char id=37   x=388   y=205   width=40    height=46    xoffset=-1    yoffset=10    xadvance=38    page=0  chnl=15
char id=38   x=84    y=139   width=35    height=38    xoffset=-1    yoffset=18    xadvance=32    page=1  chnl=15
char id=39   x=417   y=173   width=12    height=16    xoffset=-1    yoffset=11    xadvance=10    page=1  chnl=15
char id=40   x=108   y=93    width=18    height=45    xoffset=0     yoffset=11    xadvance=17    page=1  chnl=15
char id=41   x=127   y=93    width=18    height=45    xoffset=-1    yoffset=11    xadvance=17    page=1  chnl=15
char id=42   x=460   y=164   width=17    height=14    xoffset=-1    yoffset=11    xadvance=15    page=1  chnl=15
char id=43   x=63    y=178   width=29    height=29    xoffset=0     yoffset=19    xadvance=29    page=1  chnl=15
char id=44   x=500   y=123   width=11    height=17    xoffset=-1    yoffset=45    xadvance=9     page=1  chnl=15
char id=45   x=55    y=208   width=18    height=9     xoffset=-1    yoffset=33    xadvance=16    page=1  chnl=15
char id=46   x=493   y=164   width=12    height=11    xoffset=-1    yoffset=45    xadvance=10    page=1  chnl=15
char id=47   x=262   y=208   width=24    height=47    xoffset=-1    yoffset=10    xadvance=22    page=0  chnl=15
char id=48   x=120   y=162   width=29    height=47    xoffset=0     yoffset=10    xadvance=29    page=0  chnl=15
char id=49   x=45    y=93    width=21    height=45    xoffset=-1    yoffset=11    xadvance=21    page=1  chnl=15
char id=50   x=183   y=0     width=28    height=46    xoffset=0     yoffset=10    xadvance=28    page=1  chnl=15
char id=51   x=210   y=160   width=29    height=47    xoffset=0     yoffset=10    xadvance=29    page=0  chnl=15
char id=52   x=31    y=47    width=30    height=45    xoffset=-2    yoffset=11    xadvance=27    page=1  chnl=15
char id=53   x=31    y=0     width=30    height=46    xoffset=0     yoffset=11    xadvance=30    page=1  chnl=15
char id=54   x=332   y=109   width=30    height=47    xoffset=0     yoffset=10    xadvance=30    page=0  chnl=15
char id=55   x=447   y=46    width=24    height=45    xoffset=-1    yoffset=11    xadvance=22    page=1  chnl=15
char id=56   x=0     y=164   width=29    height=47    xoffset=0     yoffset=10    xadvance=29    page=0  chnl=15
char id=57   x=425   y=108   width=30    height=47    xoffset=0     yoffset=10    xadvance=30    page=0  chnl=15
char id=58   x=495   y=92    width=12    height=30    xoffset=0     yoffset=26    xadvance=11    page=1  chnl=15
char id=59   x=46    y=212   width=12    height=36    xoffset=0     yoffset=26    xadvance=11    page=0  chnl=15
char id=60   x=93    y=178   width=29    height=29    xoffset=0     yoffset=18    xadvance=29    page=1  chnl=15
char id=61   x=312   y=175   width=29    height=19    xoffset=0     yoffset=24    xadvance=29    page=1  chnl=15
char id=62   x=33    y=178   width=29    height=29    xoffset=0     yoffset=18    xadvance=29    page=1  chnl=15
char id=63   x=153   y=0     width=29    height=46    xoffset=1     yoffset=10    xadvance=29    page=1  chnl=15
char id=64   x=133   y=111   width=45    height=48    xoffset=-1    yoffset=10    xadvance=43    page=0  chnl=15
char id=65   x=328   y=0     width=32    height=45    xoffset=-3    yoffset=11    xadvance=28    page=1  chnl=15
char id=66   x=0     y=47    width=30    height=45    xoffset=0     yoffset=11    xadvance=30    page=1  chnl=15
char id=67   x=363   y=109   width=30    height=47    xoffset=0     yoffset=10    xadvance=30    page=0  chnl=15
char id=68   x=62    y=47    width=30    height=45    xoffset=0     yoffset=11    xadvance=30    page=1  chnl=15
char id=69   x=488   y=0     width=23    height=45    xoffset=1     yoffset=11    xadvance=23    page=1  chnl=15
char id=70   x=0     y=93    width=22    height=45    xoffset=1     yoffset=11    xadvance=22    page=1  chnl=15
char id=71   x=456   y=107   width=30    height=47    xoffset=0     yoffset=10    xadvance=30    page=0  chnl=15
char id=72   x=124   y=47    width=29    height=45    xoffset=1     yoffset=11    xadvance=31    page=1  chnl=15
char id=73   x=497   y=46    width=14    height=45    xoffset=1     yoffset=11    xadvance=16    page=1  chnl=15
char id=74   x=88    y=93    width=19    height=45    xoffset=-1    yoffset=11    xadvance=18    page=1  chnl=15
char id=75   x=394   y=0     width=31    height=45    xoffset=1     yoffset=11    xadvance=30    page=1  chnl=15
char id=76   x=23    y=93    width=21    height=45    xoffset=1     yoffset=11    xadvance=21    page=1  chnl=15
char id=77   x=255   y=0     width=39    height=45    xoffset=0     yoffset=11    xadvance=39    page=1  chnl=15
char id=78   x=361   y=46    width=28    height=45    xoffset=1     yoffset=11    xadvance=30    page=1  chnl=15
char id=79   x=394   y=109   width=30    height=47    xoffset=0     yoffset=10    xadvance=30    page=0  chnl=15
char id=80   x=390   y=46    width=28    height=45    xoffset=1     yoffset=11    xadvance=28    page=1  chnl=15
char id=81   x=464   y=55    width=30    height=51    xoffset=0     yoffset=10    xadvance=30    page=0  chnl=15
char id=82   x=244   y=46    width=29    height=45    xoffset=1     yoffset=11    xadvance=30    page=1  chnl=15
char id=83   x=180   y=160   width=29    height=47    xoffset=0     yoffset=10    xadvance=28    page=0  chnl=15
char id=84   x=419   y=46    width=27    height=45    xoffset=-1    yoffset=11    xadvance=25    page=1  chnl=15
char id=85   x=62    y=0     width=30    height=46    xoffset=0     yoffset=11    xadvance=30    page=1  chnl=15
char id=86   x=295   y=0     width=32    height=45    xoffset=-3    yoffset=11    xadvance=28    page=1  chnl=15
char id=87   x=90    y=210   width=48    height=45    xoffset=-3    yoffset=11    xadvance=44    page=0  chnl=15
char id=88   x=457   y=0     width=30    height=45    xoffset=-3    yoffset=11    xadvance=26    page=1  chnl=15
char id=89   x=93    y=47    width=30    height=45    xoffset=-2    yoffset=11    xadvance=26    page=1  chnl=15
char id=90   x=472   y=46    width=24    height=45    xoffset=-1    yoffset=11    xadvance=22    page=1  chnl=15
char id=91   x=212   y=93    width=15    height=45    xoffset=1     yoffset=11    xadvance=16    page=1  chnl=15
char id=92   x=487   y=107   width=24    height=47    xoffset=-1    yoffset=10    xadvance=22    page=0  chnl=15
char id=93   x=163   y=93    width=16    height=45    xoffset=-1    yoffset=11    xadvance=16    page=1  chnl=15
char id=94   x=282   y=175   width=29    height=23    xoffset=-1    yoffset=11    xadvance=27    page=1  chnl=15
char id=95   x=144   y=206   width=34    height=5     xoffset=-2    yoffset=58    xadvance=30    page=1  chnl=15
char id=96   x=74    y=208   width=17    height=9     xoffset=-1    yoffset=7     xadvance=18    page=1  chnl=15
char id=97   x=267   y=136   width=28    height=38    xoffset=0     yoffset=18    xadvance=28    page=1  chnl=15
char id=98   x=184   y=47    width=29    height=45    xoffset=0     yoffset=11    xadvance=29    page=1  chnl=15
char id=99   x=354   y=135   width=27    height=38    xoffset=0     yoffset=18    xadvance=27    page=1  chnl=15
char id=100  x=154   y=47    width=29    height=45    xoffset=0     yoffset=11    xadvance=29    page=1  chnl=15
char id=101  x=325   y=135   width=28    height=38    xoffset=0     yoffset=18    xadvance=28    page=1  chnl=15
char id=102  x=67    y=93    width=20    height=45    xoffset=-2    yoffset=11    xadvance=16    page=1  chnl=15
char id=103  x=60    y=211   width=29    height=44    xoffset=0     yoffset=18    xadvance=29    page=0  chnl=15
char id=104  x=214   y=46    width=29    height=45    xoffset=0     yoffset=11    xadvance=29    page=1  chnl=15
char id=105  x=180   y=93    width=15    height=45    xoffset=0     yoffset=11    xadvance=15    page=1  chnl=15
char id=106  x=59    y=112   width=17    height=50    xoffset=-2    yoffset=11    xadvance=15    page=0  chnl=15
char id=107  x=303   y=46    width=28    height=45    xoffset=0     yoffset=11    xadvance=26    page=1  chnl=15
char id=108  x=196   y=93    width=15    height=45    xoffset=0     yoffset=11    xadvance=15    page=1  chnl=15
char id=109  x=452   y=92    width=42    height=38    xoffset=0     yoffset=18    xadvance=42    page=1  chnl=15
char id=110  x=120   y=139   width=29    height=38    xoffset=0     yoffset=18    xadvance=29    page=1  chnl=15
char id=111  x=180   y=139   width=28    height=38    xoffset=0     yoffset=18    xadvance=28    page=1  chnl=15
char id=112  x=258   y=92    width=29    height=43    xoffset=0     yoffset=18    xadvance=29    page=1  chnl=15
char id=113  x=228   y=92    width=29    height=43    xoffset=0     yoffset=18    xadvance=28    page=1  chnl=15
char id=114  x=410   y=134   width=21    height=38    xoffset=0     yoffset=18    xadvance=20    page=1  chnl=15
char id=115  x=296   y=136   width=28    height=38    xoffset=-1    yoffset=18    xadvance=26    page=1  chnl=15
char id=116  x=363   y=92    width=21    height=42    xoffset=-2    yoffset=14    xadvance=17    page=1  chnl=15
char id=117  x=150   y=139   width=29    height=38    xoffset=0     yoffset=18    xadvance=29    page=1  chnl=15
char id=118  x=382   y=135   width=27    height=38    xoffset=-3    yoffset=18    xadvance=23    page=1  chnl=15
char id=119  x=42    y=139   width=41    height=38    xoffset=-3    yoffset=18    xadvance=37    page=1  chnl=15
char id=120  x=238   y=136   width=28    height=38    xoffset=-2    yoffset=18    xadvance=24    page=1  chnl=15
char id=121  x=288   y=92    width=28    height=43    xoffset=-2    yoffset=18    xadvance=25    page=1  chnl=15
char id=122  x=432   y=132   width=21    height=38    xoffset=-1    yoffset=18    xadvance=19    page=1  chnl=15
char id=123  x=267   y=56    width=22    height=53    xoffset=-1    yoffset=11    xadvance=20    page=0  chnl=15
char id=124  x=419   y=55    width=9     height=52    xoffset=3     yoffset=11    xadvance=15    page=0  chnl=15
char id=125  x=244   y=56    width=22    height=53    xoffset=-1    yoffset=11    xadvance=20    page=0  chnl=15
char id=126  x=430   y=173   width=29    height=14    xoffset=0     yoffset=25    xadvance=29    page=1  chnl=15
char id=160  x=504   y=4     width=5     height=3     xoffset=-2    yoffset=65    xadvance=10    page=0  chnl=15
char id=161  x=495   y=55    width=16    height=45    xoffset=-1    yoffset=16    xadvance=15    page=0  chnl=15
char id=162  x=77    y=112   width=28    height=49    xoffset=0     yoffset=10    xadvance=28    page=0  chnl=15
char id=163  x=93    y=0     width=29    height=46    xoffset=0     yoffset=10    xadvance=29    page=1  chnl=15
char id=164  x=0     y=178   width=32    height=29    xoffset=-1    yoffset=23    xadvance=30    page=1  chnl=15
char id=165  x=426   y=0     width=30    height=45    xoffset=-2    yoffset=11    xadvance=26    page=1  chnl=15
char id=166  x=409   y=55    width=9     height=52    xoffset=3     yoffset=11    xadvance=15    page=0  chnl=15
char id=167  x=321   y=56    width=29    height=52    xoffset=-1    yoffset=10    xadvance=27    page=0  chnl=15
char id=168  x=13    y=208   width=22    height=9     xoffset=-2    yoffset=7     xadvance=18    page=1  chnl=15
char id=169  x=317   y=92    width=45    height=42    xoffset=-1    yoffset=14    xadvance=43    page=1  chnl=15
char id=170  x=261   y=175   width=20    height=24    xoffset=-1    yoffset=10    xadvance=18    page=1  chnl=15
char id=171  x=477   y=131   width=22    height=32    xoffset=-1    yoffset=21    xadvance=20    page=1  chnl=15
char id=172  x=342   y=174   width=29    height=19    xoffset=0     yoffset=23    xadvance=29    page=1  chnl=15
char id=173  x=36    y=208   width=18    height=9     xoffset=-1    yoffset=33    xadvance=16    page=1  chnl=15
char id=174  x=0     y=212   width=45    height=43    xoffset=-1    yoffset=13    xadvance=43    page=0  chnl=15
char id=175  x=109   y=208   width=34    height=5     xoffset=-2    yoffset=6     xadvance=30    page=1  chnl=15
char id=176  x=372   y=174   width=21    height=19    xoffset=-1    yoffset=10    xadvance=19    page=1  chnl=15
char id=177  x=422   y=92    width=29    height=39    xoffset=0     yoffset=13    xadvance=29    page=1  chnl=15
char id=178  x=204   y=178   width=19    height=26    xoffset=-1    yoffset=10    xadvance=17    page=1  chnl=15
char id=179  x=183   y=178   width=20    height=26    xoffset=-1    yoffset=10    xadvance=18    page=1  chnl=15
char id=180  x=92    y=208   width=16    height=9     xoffset=3     yoffset=7     xadvance=18    page=1  chnl=15
char id=181  x=106   y=112   width=26    height=49    xoffset=0     yoffset=18    xadvance=26    page=0  chnl=15
char id=182  x=429   y=55    width=34    height=51    xoffset=-1    yoffset=11    xadvance=32    page=0  chnl=15
char id=183  x=0     y=208   width=12    height=10    xoffset=3     yoffset=31    xadvance=18    page=1  chnl=15
char id=184  x=478   y=164   width=14    height=14    xoffset=1     yoffset=54    xadvance=18    page=1  chnl=15
char id=185  x=224   y=178   width=15    height=26    xoffset=-2    yoffset=10    xadvance=13    page=1  chnl=15
char id=186  x=240   y=175   width=20    height=24    xoffset=-1    yoffset=10    xadvance=18    page=1  chnl=15
char id=187  x=454   y=131   width=22    height=32    xoffset=-1    yoffset=21    xadvance=20    page=1  chnl=15
char id=188  x=468   y=204   width=36    height=46    xoffset=-1    yoffset=10    xadvance=34    page=0  chnl=15
char id=189  x=429   y=205   width=38    height=46    xoffset=-2    yoffset=10    xadvance=35    page=0  chnl=15
char id=190  x=347   y=205   width=40    height=46    xoffset=-1    yoffset=10    xadvance=38    page=0  chnl=15
char id=191  x=123   y=0     width=29    height=46    xoffset=-1    yoffset=16    xadvance=29    page=1  chnl=15
char id=192  x=405   y=0     width=32    height=54    xoffset=-3    yoffset=2     xadvance=28    page=0  chnl=15
char id=193  x=438   y=0     width=32    height=54    xoffset=-3    yoffset=2     xadvance=28    page=0  chnl=15
char id=194  x=471   y=0     width=32    height=54    xoffset=-3    yoffset=2     xadvance=28    page=0  chnl=15
char id=195  x=95    y=0     width=32    height=55    xoffset=-3    yoffset=1     xadvance=28    page=0  chnl=15
char id=196  x=0     y=58    width=32    height=54    xoffset=-3    yoffset=2     xadvance=28    page=0  chnl=15
char id=197  x=0     y=0     width=32    height=57    xoffset=-3    yoffset=-1    xadvance=28    page=0  chnl=15
char id=198  x=212   y=0     width=42    height=45    xoffset=-2    yoffset=11    xadvance=39    page=1  chnl=15
char id=199  x=64    y=0     width=30    height=56    xoffset=0     yoffset=10    xadvance=30    page=0  chnl=15
char id=200  x=137   y=56    width=23    height=54    xoffset=1     yoffset=2     xadvance=23    page=0  chnl=15
char id=201  x=113   y=56    width=23    height=54    xoffset=1     yoffset=2     xadvance=23    page=0  chnl=15
char id=202  x=161   y=56    width=23    height=54    xoffset=1     yoffset=2     xadvance=23    page=0  chnl=15
char id=203  x=89    y=57    width=23    height=54    xoffset=1     yoffset=2     xadvance=23    page=0  chnl=15
char id=204  x=226   y=56    width=17    height=54    xoffset=-2    yoffset=2     xadvance=16    page=0  chnl=15
char id=205  x=208   y=56    width=17    height=54    xoffset=1     yoffset=2     xadvance=16    page=0  chnl=15
char id=206  x=64    y=57    width=24    height=54    xoffset=-4    yoffset=2     xadvance=16    page=0  chnl=15
char id=207  x=185   y=56    width=22    height=54    xoffset=-3    yoffset=2     xadvance=16    page=0  chnl=15
char id=208  x=361   y=0     width=32    height=45    xoffset=-1    yoffset=11    xadvance=31    page=1  chnl=15
char id=209  x=376   y=0     width=28    height=55    xoffset=1     yoffset=1     xadvance=30    page=0  chnl=15
char id=210  x=314   y=0     width=30    height=55    xoffset=0     yoffset=2     xadvance=30    page=0  chnl=15
char id=211  x=283   y=0     width=30    height=55    xoffset=0     yoffset=2     xadvance=30    page=0  chnl=15
char id=212  x=190   y=0     width=30    height=55    xoffset=0     yoffset=2     xadvance=30    page=0  chnl=15
char id=213  x=33    y=0     width=30    height=56    xoffset=0     yoffset=1     xadvance=30    page=0  chnl=15
char id=214  x=345   y=0     width=30    height=55    xoffset=0     yoffset=2     xadvance=30    page=0  chnl=15
char id=215  x=123   y=178   width=29    height=27    xoffset=0     yoffset=19    xadvance=29    page=1  chnl=15
char id=216  x=295   y=109   width=36    height=47    xoffset=-3    yoffset=10    xadvance=30    page=0  chnl=15
char id=217  x=128   y=0     width=30    height=55    xoffset=0     yoffset=2     xadvance=30    page=0  chnl=15
char id=218  x=252   y=0     width=30    height=55    xoffset=0     yoffset=2     xadvance=30    page=0  chnl=15
char id=219  x=221   y=0     width=30    height=55    xoffset=0     yoffset=2     xadvance=30    page=0  chnl=15
char id=220  x=159   y=0     width=30    height=55    xoffset=0     yoffset=2     xadvance=30    page=0  chnl=15
char id=221  x=33    y=57    width=30    height=54    xoffset=-2    yoffset=2     xadvance=26    page=0  chnl=15
char id=222  x=332   y=46    width=28    height=45    xoffset=1     yoffset=11    xadvance=28    page=1  chnl=15
char id=223  x=0     y=0     width=30    height=46    xoffset=0     yoffset=10    xadvance=30    page=1  chnl=15
char id=224  x=356   y=157   width=28    height=47    xoffset=0     yoffset=9     xadvance=28    page=0  chnl=15
char id=225  x=327   y=157   width=28    height=47    xoffset=0     yoffset=9     xadvance=28    page=0  chnl=15
char id=226  x=298   y=157   width=28    height=47    xoffset=0     yoffset=9     xadvance=28    page=0  chnl=15
char id=227  x=209   y=111   width=28    height=48    xoffset=0     yoffset=8     xadvance=28    page=0  chnl=15
char id=228  x=269   y=159   width=28    height=47    xoffset=0     yoffset=9     xadvance=28    page=0  chnl=15
char id=229  x=30    y=113   width=28    height=50    xoffset=0     yoffset=6     xadvance=28    page=0  chnl=15
char id=230  x=0     y=139   width=41    height=38    xoffset=0     yoffset=18    xadvance=41    page=1  chnl=15
char id=231  x=267   y=110   width=27    height=48    xoffset=0     yoffset=18    xadvance=27    page=0  chnl=15
char id=232  x=414   y=157   width=28    height=47    xoffset=0     yoffset=9     xadvance=28    page=0  chnl=15
char id=233  x=240   y=160   width=28    height=47    xoffset=0     yoffset=9     xadvance=28    page=0  chnl=15
char id=234  x=385   y=157   width=28    height=47    xoffset=0     yoffset=9     xadvance=28    page=0  chnl=15
char id=235  x=472   y=155   width=28    height=47    xoffset=0     yoffset=9     xadvance=28    page=0  chnl=15
char id=236  x=329   y=205   width=17    height=47    xoffset=-2    yoffset=9     xadvance=15    page=0  chnl=15
char id=237  x=310   y=205   width=18    height=47    xoffset=0     yoffset=9     xadvance=15    page=0  chnl=15
char id=238  x=237   y=208   width=24    height=47    xoffset=-4    yoffset=9     xadvance=15    page=0  chnl=15
char id=239  x=287   y=207   width=22    height=47    xoffset=-3    yoffset=9     xadvance=15    page=0  chnl=15
char id=240  x=274   y=46    width=28    height=45    xoffset=0     yoffset=11    xadvance=28    page=1  chnl=15
char id=241  x=179   y=111   width=29    height=48    xoffset=0     yoffset=8     xadvance=29    page=0  chnl=15
char id=242  x=443   y=156   width=28    height=47    xoffset=0     yoffset=9     xadvance=28    page=0  chnl=15
char id=243  x=150   y=208   width=28    height=47    xoffset=0     yoffset=9     xadvance=28    page=0  chnl=15
char id=244  x=179   y=208   width=28    height=47    xoffset=0     yoffset=9     xadvance=28    page=0  chnl=15
char id=245  x=238   y=111   width=28    height=48    xoffset=0     yoffset=8     xadvance=28    page=0  chnl=15
char id=246  x=208   y=208   width=28    height=47    xoffset=0     yoffset=9     xadvance=28    page=0  chnl=15
char id=247  x=153   y=178   width=29    height=27    xoffset=0     yoffset=19    xadvance=29    page=1  chnl=15
char id=248  x=209   y=139   width=28    height=38    xoffset=0     yoffset=18    xadvance=28    page=1  chnl=15
char id=249  x=30    y=164   width=29    height=47    xoffset=0     yoffset=9     xadvance=29    page=0  chnl=15
char id=250  x=60    y=163   width=29    height=47    xoffset=0     yoffset=9     xadvance=29    page=0  chnl=15
char id=251  x=90    y=162   width=29    height=47    xoffset=0     yoffset=9     xadvance=29    page=0  chnl=15
char id=252  x=150   y=160   width=29    height=47    xoffset=0     yoffset=9     xadvance=29    page=0  chnl=15
char id=253  x=380   y=56    width=28    height=52    xoffset=-2    yoffset=9     xadvance=25    page=0  chnl=15
char id=254  x=0     y=113   width=29    height=50    xoffset=0     yoffset=11    xadvance=29    page=0  chnl=15
char id=255  x=351   y=56    width=28    height=52    xoffset=-2    yoffset=9     xadvance=25    page=0  chnl=15
kernings count=413
kerning first=40  second=65  amount=1   
kerning first=40  second=196 amount=1   
kerning first=40  second=197 amount=1   
kerning first=40  second=198 amount=1   
kerning first=40  second=192 amount=1   
kerning first=40  second=195 amount=1   
kerning first=40  second=194 amount=1   
kerning first=40  second=193 amount=1   
kerning first=50  second=52  amount=-1  
kerning first=51  second=55  amount=-1  
kerning first=52  second=49  amount=-1  
kerning first=52  second=55  amount=-1  
kerning first=53  second=49  amount=-2  
kerning first=53  second=50  amount=-1  
kerning first=53  second=55  amount=-2  
kerning first=54  second=50  amount=-1  
kerning first=54  second=55  amount=-1  
kerning first=55  second=49  amount=1   
kerning first=55  second=51  amount=1   
kerning first=55  second=52  amount=-1  
kerning first=55  second=55  amount=1   
kerning first=65  second=41  amount=1   
kerning first=65  second=44  amount=1   
kerning first=65  second=46  amount=1   
kerning first=65  second=47  amount=1   
kerning first=65  second=65  amount=1   
kerning first=65  second=74  amount=1   
kerning first=65  second=84  amount=-3  
kerning first=65  second=86  amount=-1  
kerning first=65  second=87  amount=-1  
kerning first=65  second=88  amount=1   
kerning first=65  second=89  amount=-3  
kerning first=65  second=90  amount=1   
kerning first=65  second=93  amount=1   
kerning first=65  second=120 amount=1   
kerning first=65  second=122 amount=1   
kerning first=65  second=125 amount=1   
kerning first=65  second=196 amount=1   
kerning first=65  second=197 amount=1   
kerning first=65  second=198 amount=1   
kerning first=200 second=84  amount=-1  
kerning first=65  second=192 amount=1   
kerning first=65  second=195 amount=1   
kerning first=203 second=84  amount=-1  
kerning first=65  second=194 amount=1   
kerning first=65  second=193 amount=1   
kerning first=69  second=84  amount=-1  
kerning first=70  second=44  amount=-3  
kerning first=70  second=46  amount=-3  
kerning first=70  second=65  amount=-1  
kerning first=70  second=86  amount=1   
kerning first=70  second=87  amount=1   
kerning first=70  second=89  amount=1   
kerning first=70  second=196 amount=-1  
kerning first=70  second=197 amount=-1  
kerning first=70  second=198 amount=-1  
kerning first=193 second=193 amount=1   
kerning first=70  second=192 amount=-1  
kerning first=70  second=195 amount=-1  
kerning first=193 second=194 amount=1   
kerning first=70  second=194 amount=-1  
kerning first=70  second=193 amount=-1  
kerning first=75  second=41  amount=1   
kerning first=75  second=44  amount=1   
kerning first=75  second=46  amount=1   
kerning first=75  second=65  amount=1   
kerning first=75  second=67  amount=-1  
kerning first=75  second=74  amount=1   
kerning first=75  second=79  amount=-1  
kerning first=75  second=81  amount=-1  
kerning first=75  second=83  amount=-1  
kerning first=75  second=90  amount=1   
kerning first=75  second=93  amount=1   
kerning first=75  second=125 amount=1   
kerning first=75  second=196 amount=1   
kerning first=75  second=197 amount=1   
kerning first=75  second=199 amount=-1  
kerning first=75  second=214 amount=-1  
kerning first=75  second=198 amount=1   
kerning first=193 second=195 amount=1   
kerning first=75  second=192 amount=1   
kerning first=75  second=195 amount=1   
kerning first=75  second=213 amount=-1  
kerning first=193 second=192 amount=1   
kerning first=75  second=194 amount=1   
kerning first=75  second=193 amount=1   
kerning first=75  second=211 amount=-1  
kerning first=76  second=44  amount=1   
kerning first=76  second=46  amount=1   
kerning first=76  second=65  amount=1   
kerning first=76  second=67  amount=-1  
kerning first=76  second=71  amount=-1  
kerning first=76  second=79  amount=-1  
kerning first=76  second=81  amount=-1  
kerning first=193 second=198 amount=1   
kerning first=76  second=84  amount=-4  
kerning first=76  second=86  amount=-2  
kerning first=76  second=87  amount=-2  
kerning first=76  second=88  amount=1   
kerning first=76  second=89  amount=-4  
kerning first=76  second=90  amount=1   
kerning first=76  second=121 amount=-1  
kerning first=76  second=196 amount=1   
kerning first=76  second=197 amount=1   
kerning first=76  second=199 amount=-1  
kerning first=76  second=214 amount=-1  
kerning first=76  second=198 amount=1   
kerning first=193 second=197 amount=1   
kerning first=76  second=192 amount=1   
kerning first=76  second=195 amount=1   
kerning first=76  second=213 amount=-1  
kerning first=193 second=196 amount=1   
kerning first=193 second=125 amount=1   
kerning first=76  second=194 amount=1   
kerning first=76  second=193 amount=1   
kerning first=76  second=211 amount=-1  
kerning first=80  second=44  amount=-7  
kerning first=80  second=46  amount=-7  
kerning first=80  second=47  amount=-4  
kerning first=80  second=65  amount=-1  
kerning first=80  second=74  amount=-2  
kerning first=80  second=196 amount=-1  
kerning first=80  second=197 amount=-1  
kerning first=80  second=198 amount=-1  
kerning first=193 second=122 amount=1   
kerning first=80  second=192 amount=-1  
kerning first=80  second=195 amount=-1  
kerning first=80  second=194 amount=-1  
kerning first=80  second=193 amount=-1  
kerning first=84  second=44  amount=-5  
kerning first=84  second=45  amount=-4  
kerning first=84  second=46  amount=-5  
kerning first=84  second=47  amount=-4  
kerning first=84  second=65  amount=-2  
kerning first=84  second=74  amount=-2  
kerning first=84  second=86  amount=1   
kerning first=84  second=87  amount=1   
kerning first=84  second=89  amount=1   
kerning first=193 second=120 amount=1   
kerning first=84  second=97  amount=-2  
kerning first=84  second=99  amount=-2  
kerning first=84  second=101 amount=-2  
kerning first=84  second=118 amount=1   
kerning first=84  second=119 amount=1   
kerning first=84  second=121 amount=1   
kerning first=84  second=196 amount=-2  
kerning first=84  second=197 amount=-2  
kerning first=84  second=231 amount=-2  
kerning first=84  second=198 amount=-2  
kerning first=84  second=230 amount=-2  
kerning first=193 second=93  amount=1   
kerning first=84  second=192 amount=-2  
kerning first=84  second=195 amount=-2  
kerning first=193 second=90  amount=1   
kerning first=84  second=194 amount=-2  
kerning first=84  second=193 amount=-2  
kerning first=86  second=44  amount=-2  
kerning first=86  second=46  amount=-2  
kerning first=86  second=47  amount=-2  
kerning first=86  second=65  amount=-1  
kerning first=86  second=74  amount=-1  
kerning first=86  second=89  amount=1   
kerning first=86  second=121 amount=1   
kerning first=86  second=196 amount=-1  
kerning first=86  second=197 amount=-1  
kerning first=86  second=198 amount=-1  
kerning first=193 second=89  amount=-3  
kerning first=86  second=192 amount=-1  
kerning first=86  second=195 amount=-1  
kerning first=193 second=88  amount=1   
kerning first=86  second=194 amount=-1  
kerning first=86  second=193 amount=-1  
kerning first=87  second=44  amount=-2  
kerning first=87  second=46  amount=-2  
kerning first=87  second=47  amount=-2  
kerning first=87  second=65  amount=-1  
kerning first=87  second=74  amount=-1  
kerning first=87  second=89  amount=1   
kerning first=87  second=121 amount=1   
kerning first=87  second=196 amount=-1  
kerning first=87  second=197 amount=-1  
kerning first=87  second=198 amount=-1  
kerning first=193 second=87  amount=-1  
kerning first=87  second=192 amount=-1  
kerning first=87  second=195 amount=-1  
kerning first=193 second=86  amount=-1  
kerning first=87  second=194 amount=-1  
kerning first=87  second=193 amount=-1  
kerning first=88  second=44  amount=2   
kerning first=88  second=46  amount=2   
kerning first=88  second=65  amount=1   
kerning first=88  second=74  amount=1   
kerning first=88  second=196 amount=1   
kerning first=88  second=197 amount=1   
kerning first=88  second=198 amount=1   
kerning first=193 second=84  amount=-3  
kerning first=88  second=192 amount=1   
kerning first=88  second=195 amount=1   
kerning first=88  second=194 amount=1   
kerning first=88  second=193 amount=1   
kerning first=89  second=44  amount=-5  
kerning first=89  second=46  amount=-5  
kerning first=89  second=47  amount=-5  
kerning first=89  second=65  amount=-3  
kerning first=89  second=74  amount=-2  
kerning first=89  second=97  amount=-2  
kerning first=89  second=99  amount=-2  
kerning first=89  second=100 amount=-2  
kerning first=89  second=101 amount=-2  
kerning first=89  second=103 amount=-2  
kerning first=89  second=111 amount=-2  
kerning first=89  second=113 amount=-2  
kerning first=89  second=115 amount=-2  
kerning first=89  second=196 amount=-3  
kerning first=89  second=197 amount=-3  
kerning first=89  second=231 amount=-2  
kerning first=89  second=198 amount=-3  
kerning first=89  second=230 amount=-2  
kerning first=193 second=74  amount=1   
kerning first=89  second=192 amount=-3  
kerning first=89  second=195 amount=-3  
kerning first=193 second=65  amount=1   
kerning first=89  second=194 amount=-3  
kerning first=89  second=193 amount=-3  
kerning first=90  second=44  amount=1   
kerning first=90  second=46  amount=1   
kerning first=90  second=65  amount=1   
kerning first=90  second=121 amount=1   
kerning first=90  second=196 amount=1   
kerning first=90  second=197 amount=1   
kerning first=90  second=198 amount=1   
kerning first=193 second=47  amount=1   
kerning first=90  second=192 amount=1   
kerning first=90  second=195 amount=1   
kerning first=90  second=194 amount=1   
kerning first=90  second=193 amount=1   
kerning first=91  second=65  amount=1   
kerning first=91  second=196 amount=1   
kerning first=91  second=197 amount=1   
kerning first=91  second=198 amount=1   
kerning first=91  second=192 amount=1   
kerning first=91  second=195 amount=1   
kerning first=91  second=194 amount=1   
kerning first=91  second=193 amount=1   
kerning first=102 second=118 amount=1   
kerning first=102 second=119 amount=1   
kerning first=102 second=121 amount=1   
kerning first=114 second=44  amount=-4  
kerning first=114 second=46  amount=-4  
kerning first=114 second=102 amount=1   
kerning first=114 second=116 amount=1   
kerning first=114 second=118 amount=1   
kerning first=114 second=119 amount=1   
kerning first=114 second=121 amount=1   
kerning first=193 second=46  amount=1   
kerning first=193 second=44  amount=1   
kerning first=193 second=41  amount=1   
kerning first=116 second=44  amount=2   
kerning first=116 second=46  amount=2   
kerning first=116 second=118 amount=1   
kerning first=116 second=121 amount=1   
kerning first=116 second=122 amount=1   
kerning first=202 second=84  amount=-1  
kerning first=118 second=44  amount=-1  
kerning first=118 second=46  amount=-1  
kerning first=118 second=102 amount=1   
kerning first=118 second=116 amount=1   
kerning first=118 second=121 amount=2   
kerning first=118 second=122 amount=1   
kerning first=194 second=193 amount=1   
kerning first=194 second=194 amount=1   
kerning first=194 second=195 amount=1   
kerning first=119 second=102 amount=1   
kerning first=119 second=121 amount=1   
kerning first=194 second=192 amount=1   
kerning first=194 second=198 amount=1   
kerning first=194 second=197 amount=1   
kerning first=120 second=44  amount=1   
kerning first=120 second=46  amount=1   
kerning first=120 second=121 amount=1   
kerning first=194 second=196 amount=1   
kerning first=121 second=44  amount=-1  
kerning first=121 second=46  amount=-1  
kerning first=121 second=102 amount=1   
kerning first=121 second=116 amount=1   
kerning first=121 second=118 amount=1   
kerning first=121 second=120 amount=1   
kerning first=194 second=125 amount=1   
kerning first=194 second=122 amount=1   
kerning first=194 second=120 amount=1   
kerning first=194 second=93  amount=1   
kerning first=122 second=44  amount=1   
kerning first=122 second=46  amount=1   
kerning first=122 second=102 amount=1   
kerning first=122 second=116 amount=1   
kerning first=122 second=118 amount=1   
kerning first=122 second=119 amount=1   
kerning first=122 second=121 amount=1   
kerning first=122 second=122 amount=1   
kerning first=194 second=90  amount=1   
kerning first=194 second=89  amount=-3  
kerning first=194 second=88  amount=1   
kerning first=123 second=65  amount=1   
kerning first=123 second=196 amount=1   
kerning first=123 second=197 amount=1   
kerning first=123 second=198 amount=1   
kerning first=123 second=192 amount=1   
kerning first=123 second=195 amount=1   
kerning first=123 second=194 amount=1   
kerning first=123 second=193 amount=1   
kerning first=196 second=41  amount=1   
kerning first=196 second=44  amount=1   
kerning first=196 second=46  amount=1   
kerning first=196 second=47  amount=1   
kerning first=196 second=65  amount=1   
kerning first=196 second=74  amount=1   
kerning first=196 second=84  amount=-3  
kerning first=196 second=86  amount=-1  
kerning first=196 second=87  amount=-1  
kerning first=196 second=88  amount=1   
kerning first=196 second=89  amount=-3  
kerning first=196 second=90  amount=1   
kerning first=196 second=93  amount=1   
kerning first=196 second=120 amount=1   
kerning first=196 second=122 amount=1   
kerning first=196 second=125 amount=1   
kerning first=196 second=196 amount=1   
kerning first=196 second=197 amount=1   
kerning first=196 second=198 amount=1   
kerning first=194 second=87  amount=-1  
kerning first=196 second=192 amount=1   
kerning first=196 second=195 amount=1   
kerning first=194 second=86  amount=-1  
kerning first=196 second=194 amount=1   
kerning first=196 second=193 amount=1   
kerning first=197 second=41  amount=1   
kerning first=197 second=44  amount=1   
kerning first=197 second=46  amount=1   
kerning first=197 second=47  amount=1   
kerning first=197 second=65  amount=1   
kerning first=197 second=74  amount=1   
kerning first=197 second=84  amount=-3  
kerning first=197 second=86  amount=-1  
kerning first=197 second=87  amount=-1  
kerning first=197 second=88  amount=1   
kerning first=197 second=89  amount=-3  
kerning first=197 second=90  amount=1   
kerning first=197 second=93  amount=1   
kerning first=197 second=120 amount=1   
kerning first=197 second=122 amount=1   
kerning first=197 second=125 amount=1   
kerning first=197 second=196 amount=1   
kerning first=197 second=197 amount=1   
kerning first=197 second=198 amount=1   
kerning first=194 second=84  amount=-3  
kerning first=197 second=192 amount=1   
kerning first=197 second=195 amount=1   
kerning first=194 second=74  amount=1   
kerning first=197 second=194 amount=1   
kerning first=197 second=193 amount=1   
kerning first=201 second=84  amount=-1  
kerning first=198 second=84  amount=-1  
kerning first=192 second=41  amount=1   
kerning first=192 second=44  amount=1   
kerning first=192 second=46  amount=1   
kerning first=192 second=47  amount=1   
kerning first=192 second=65  amount=1   
kerning first=192 second=74  amount=1   
kerning first=192 second=84  amount=-3  
kerning first=192 second=86  amount=-1  
kerning first=192 second=87  amount=-1  
kerning first=192 second=88  amount=1   
kerning first=192 second=89  amount=-3  
kerning first=192 second=90  amount=1   
kerning first=192 second=93  amount=1   
kerning first=192 second=120 amount=1   
kerning first=192 second=122 amount=1   
kerning first=192 second=125 amount=1   
kerning first=192 second=196 amount=1   
kerning first=192 second=197 amount=1   
kerning first=192 second=198 amount=1   
kerning first=194 second=65  amount=1   
kerning first=192 second=192 amount=1   
kerning first=192 second=195 amount=1   
kerning first=194 second=47  amount=1   
kerning first=192 second=194 amount=1   
kerning first=192 second=193 amount=1   
kerning first=195 second=41  amount=1   
kerning first=195 second=44  amount=1   
kerning first=195 second=46  amount=1   
kerning first=195 second=47  amount=1   
kerning first=195 second=65  amount=1   
kerning first=195 second=74  amount=1   
kerning first=195 second=84  amount=-3  
kerning first=195 second=86  amount=-1  
kerning first=195 second=87  amount=-1  
kerning first=195 second=88  amount=1   
kerning first=195 second=89  amount=-3  
kerning first=195 second=90  amount=1   
kerning first=195 second=93  amount=1   
kerning first=195 second=120 amount=1   
kerning first=195 second=122 amount=1   
kerning first=195 second=125 amount=1   
kerning first=195 second=196 amount=1   
kerning first=195 second=197 amount=1   
kerning first=195 second=198 amount=1   
kerning first=194 second=46  amount=1   
kerning first=195 second=192 amount=1   
kerning first=195 second=195 amount=1   
kerning first=194 second=44  amount=1   
kerning first=195 second=194 amount=1   
kerning first=195 second=193 amount=1   
kerning first=194 second=41  amount=1   
