info face="Impact" size=-18 bold=0 italic=0 charset="" unicode=1 stretchH=100 smooth=1 aa=1 padding=0,0,0,0 spacing=1,1 outline=1
common lineHeight=22 base=18 scaleW=512 scaleH=256 pages=1 packed=0 alphaChnl=1 redChnl=0 greenChnl=0 blueChnl=0
page id=0 file="Font18Impact_o1_0.png"
chars count=191
char id=32   x=228   y=70    width=5     height=3     xoffset=-2    yoffset=20    xadvance=3     page=0  chnl=15
char id=33   x=101   y=55    width=7     height=16    xoffset=-1    yoffset=3     xadvance=5     page=0  chnl=15
char id=34   x=88    y=72    width=9     height=6     xoffset=-1    yoffset=3     xadvance=7     page=0  chnl=15
char id=35   x=143   y=55    width=14    height=15    xoffset=-1    yoffset=4     xadvance=11    page=0  chnl=15
char id=36   x=383   y=0     width=12    height=18    xoffset=-1    yoffset=2     xadvance=10    page=0  chnl=15
char id=37   x=421   y=19    width=15    height=16    xoffset=-1    yoffset=3     xadvance=12    page=0  chnl=15
char id=38   x=217   y=55    width=14    height=14    xoffset=-2    yoffset=5     xadvance=10    page=0  chnl=15
char id=39   x=108   y=72    width=7     height=6     xoffset=-2    yoffset=3     xadvance=3     page=0  chnl=15
char id=40   x=68    y=56    width=8     height=16    xoffset=-1    yoffset=3     xadvance=6     page=0  chnl=15
char id=41   x=50    y=56    width=8     height=16    xoffset=-1    yoffset=3     xadvance=6     page=0  chnl=15
char id=42   x=98    y=72    width=9     height=6     xoffset=-2    yoffset=3     xadvance=5     page=0  chnl=15
char id=43   x=446   y=53    width=12    height=10    xoffset=-1    yoffset=6     xadvance=10    page=0  chnl=15
char id=44   x=82    y=72    width=5     height=7     xoffset=-1    yoffset=14    xadvance=3     page=0  chnl=15
char id=45   x=162   y=71    width=8     height=4     xoffset=-1    yoffset=10    xadvance=5     page=0  chnl=15
char id=46   x=136   y=71    width=7     height=5     xoffset=-2    yoffset=14    xadvance=3     page=0  chnl=15
char id=47   x=121   y=20    width=11    height=17    xoffset=-2    yoffset=2     xadvance=7     page=0  chnl=15
char id=48   x=304   y=38    width=12    height=16    xoffset=-1    yoffset=3     xadvance=10    page=0  chnl=15
char id=49   x=486   y=36    width=10    height=16    xoffset=-2    yoffset=3     xadvance=7     page=0  chnl=15
char id=50   x=366   y=37    width=11    height=16    xoffset=-1    yoffset=3     xadvance=9     page=0  chnl=15
char id=51   x=291   y=38    width=12    height=16    xoffset=-1    yoffset=3     xadvance=10    page=0  chnl=15
char id=52   x=56    y=39    width=13    height=16    xoffset=-2    yoffset=3     xadvance=9     page=0  chnl=15
char id=53   x=187   y=38    width=12    height=16    xoffset=-1    yoffset=3     xadvance=10    page=0  chnl=15
char id=54   x=265   y=38    width=12    height=16    xoffset=-1    yoffset=3     xadvance=10    page=0  chnl=15
char id=55   x=342   y=37    width=11    height=16    xoffset=-2    yoffset=3     xadvance=7     page=0  chnl=15
char id=56   x=161   y=38    width=12    height=16    xoffset=-1    yoffset=3     xadvance=10    page=0  chnl=15
char id=57   x=213   y=38    width=12    height=16    xoffset=-1    yoffset=3     xadvance=10    page=0  chnl=15
char id=58   x=439   y=53    width=6     height=11    xoffset=-1    yoffset=8     xadvance=4     page=0  chnl=15
char id=59   x=386   y=53    width=6     height=13    xoffset=-1    yoffset=8     xadvance=4     page=0  chnl=15
char id=60   x=426   y=53    width=12    height=11    xoffset=-1    yoffset=5     xadvance=10    page=0  chnl=15
char id=61   x=69    y=73    width=12    height=7     xoffset=-1    yoffset=7     xadvance=10    page=0  chnl=15
char id=62   x=413   y=53    width=12    height=11    xoffset=-1    yoffset=5     xadvance=10    page=0  chnl=15
char id=63   x=135   y=38    width=12    height=16    xoffset=-1    yoffset=3     xadvance=9     page=0  chnl=15
char id=64   x=6     y=21    width=16    height=17    xoffset=-1    yoffset=3     xadvance=14    page=0  chnl=15
char id=65   x=0     y=40    width=13    height=16    xoffset=-3    yoffset=3     xadvance=9     page=0  chnl=15
char id=66   x=109   y=38    width=12    height=16    xoffset=-1    yoffset=3     xadvance=10    page=0  chnl=15
char id=67   x=96    y=38    width=12    height=16    xoffset=-1    yoffset=3     xadvance=10    page=0  chnl=15
char id=68   x=83    y=38    width=12    height=16    xoffset=-1    yoffset=3     xadvance=10    page=0  chnl=15
char id=69   x=11    y=57    width=9     height=16    xoffset=-1    yoffset=3     xadvance=7     page=0  chnl=15
char id=70   x=497   y=36    width=10    height=16    xoffset=-1    yoffset=3     xadvance=7     page=0  chnl=15
char id=71   x=252   y=38    width=12    height=16    xoffset=-1    yoffset=3     xadvance=10    page=0  chnl=15
char id=72   x=70    y=38    width=12    height=16    xoffset=-1    yoffset=3     xadvance=10    page=0  chnl=15
char id=73   x=93    y=55    width=7     height=16    xoffset=-1    yoffset=3     xadvance=5     page=0  chnl=15
char id=74   x=31    y=56    width=9     height=16    xoffset=-2    yoffset=3     xadvance=6     page=0  chnl=15
char id=75   x=468   y=19    width=13    height=16    xoffset=-1    yoffset=3     xadvance=10    page=0  chnl=15
char id=76   x=0     y=57    width=10    height=16    xoffset=-1    yoffset=3     xadvance=7     page=0  chnl=15
char id=77   x=373   y=19    width=15    height=16    xoffset=-1    yoffset=3     xadvance=13    page=0  chnl=15
char id=78   x=148   y=38    width=12    height=16    xoffset=-1    yoffset=3     xadvance=10    page=0  chnl=15
char id=79   x=239   y=38    width=12    height=16    xoffset=-1    yoffset=3     xadvance=10    page=0  chnl=15
char id=80   x=378   y=36    width=11    height=16    xoffset=-1    yoffset=3     xadvance=9     page=0  chnl=15
char id=81   x=396   y=0     width=12    height=18    xoffset=-1    yoffset=3     xadvance=10    page=0  chnl=15
char id=82   x=226   y=38    width=12    height=16    xoffset=-1    yoffset=3     xadvance=10    page=0  chnl=15
char id=83   x=390   y=36    width=11    height=16    xoffset=-1    yoffset=3     xadvance=9     page=0  chnl=15
char id=84   x=200   y=38    width=12    height=16    xoffset=-2    yoffset=3     xadvance=8     page=0  chnl=15
char id=85   x=174   y=38    width=12    height=16    xoffset=-1    yoffset=3     xadvance=10    page=0  chnl=15
char id=86   x=482   y=19    width=13    height=16    xoffset=-3    yoffset=3     xadvance=9     page=0  chnl=15
char id=87   x=336   y=20    width=19    height=16    xoffset=-3    yoffset=3     xadvance=15    page=0  chnl=15
char id=88   x=14    y=39    width=13    height=16    xoffset=-2    yoffset=3     xadvance=9     page=0  chnl=15
char id=89   x=28    y=39    width=13    height=16    xoffset=-2    yoffset=3     xadvance=9     page=0  chnl=15
char id=90   x=402   y=36    width=11    height=16    xoffset=-2    yoffset=3     xadvance=7     page=0  chnl=15
char id=91   x=59    y=56    width=8     height=16    xoffset=-1    yoffset=3     xadvance=5     page=0  chnl=15
char id=92   x=288   y=20    width=10    height=17    xoffset=-1    yoffset=2     xadvance=7     page=0  chnl=15
char id=93   x=41    y=56    width=8     height=16    xoffset=-2    yoffset=3     xadvance=5     page=0  chnl=15
char id=94   x=17    y=74    width=11    height=9     xoffset=-1    yoffset=3     xadvance=9     page=0  chnl=15
char id=95   x=213   y=70    width=14    height=3     xoffset=-2    yoffset=18    xadvance=10    page=0  chnl=15
char id=96   x=180   y=70    width=8     height=4     xoffset=-2    yoffset=2     xadvance=6     page=0  chnl=15
char id=97   x=328   y=55    width=11    height=14    xoffset=-1    yoffset=5     xadvance=9     page=0  chnl=15
char id=98   x=414   y=36    width=11    height=16    xoffset=-1    yoffset=3     xadvance=9     page=0  chnl=15
char id=99   x=280   y=55    width=11    height=14    xoffset=-1    yoffset=5     xadvance=9     page=0  chnl=15
char id=100  x=426   y=36    width=11    height=16    xoffset=-1    yoffset=3     xadvance=9     page=0  chnl=15
char id=101  x=268   y=55    width=11    height=14    xoffset=-1    yoffset=5     xadvance=9     page=0  chnl=15
char id=102  x=21    y=56    width=9     height=16    xoffset=-2    yoffset=3     xadvance=5     page=0  chnl=15
char id=103  x=438   y=36    width=11    height=16    xoffset=-1    yoffset=5     xadvance=9     page=0  chnl=15
char id=104  x=450   y=36    width=11    height=16    xoffset=-1    yoffset=3     xadvance=9     page=0  chnl=15
char id=105  x=85    y=55    width=7     height=16    xoffset=-1    yoffset=3     xadvance=5     page=0  chnl=15
char id=106  x=492   y=0     width=8     height=18    xoffset=-2    yoffset=3     xadvance=5     page=0  chnl=15
char id=107  x=122   y=38    width=12    height=16    xoffset=-1    yoffset=3     xadvance=9     page=0  chnl=15
char id=108  x=77    y=55    width=7     height=16    xoffset=-1    yoffset=3     xadvance=5     page=0  chnl=15
char id=109  x=185   y=55    width=15    height=14    xoffset=-1    yoffset=5     xadvance=13    page=0  chnl=15
char id=110  x=256   y=55    width=11    height=14    xoffset=-1    yoffset=5     xadvance=9     page=0  chnl=15
char id=111  x=244   y=55    width=11    height=14    xoffset=-1    yoffset=5     xadvance=9     page=0  chnl=15
char id=112  x=462   y=36    width=11    height=16    xoffset=-1    yoffset=5     xadvance=9     page=0  chnl=15
char id=113  x=330   y=38    width=11    height=16    xoffset=-1    yoffset=5     xadvance=9     page=0  chnl=15
char id=114  x=363   y=54    width=9     height=14    xoffset=-1    yoffset=5     xadvance=6     page=0  chnl=15
char id=115  x=232   y=55    width=11    height=14    xoffset=-1    yoffset=5     xadvance=8     page=0  chnl=15
char id=116  x=158   y=55    width=9     height=15    xoffset=-2    yoffset=4     xadvance=5     page=0  chnl=15
char id=117  x=340   y=55    width=11    height=14    xoffset=-1    yoffset=5     xadvance=9     page=0  chnl=15
char id=118  x=304   y=55    width=11    height=14    xoffset=-3    yoffset=5     xadvance=7     page=0  chnl=15
char id=119  x=201   y=55    width=15    height=14    xoffset=-3    yoffset=5     xadvance=11    page=0  chnl=15
char id=120  x=316   y=55    width=11    height=14    xoffset=-3    yoffset=5     xadvance=7     page=0  chnl=15
char id=121  x=278   y=38    width=12    height=16    xoffset=-2    yoffset=5     xadvance=8     page=0  chnl=15
char id=122  x=352   y=54    width=10    height=14    xoffset=-2    yoffset=5     xadvance=6     page=0  chnl=15
char id=123  x=321   y=0     width=9     height=19    xoffset=-1    yoffset=3     xadvance=7     page=0  chnl=15
char id=124  x=0     y=21    width=5     height=18    xoffset=0     yoffset=3     xadvance=5     page=0  chnl=15
char id=125  x=331   y=0     width=9     height=19    xoffset=-1    yoffset=3     xadvance=7     page=0  chnl=15
char id=126  x=124   y=71    width=11    height=5     xoffset=-1    yoffset=9     xadvance=9     page=0  chnl=15
char id=160  x=234   y=70    width=5     height=3     xoffset=-2    yoffset=20    xadvance=3     page=0  chnl=15
char id=161  x=328   y=20    width=7     height=17    xoffset=-1    yoffset=4     xadvance=5     page=0  chnl=15
char id=162  x=145   y=20    width=11    height=17    xoffset=-1    yoffset=3     xadvance=9     page=0  chnl=15
char id=163  x=317   y=38    width=12    height=16    xoffset=-1    yoffset=3     xadvance=10    page=0  chnl=15
char id=164  x=459   y=53    width=12    height=10    xoffset=-1    yoffset=7     xadvance=10    page=0  chnl=15
char id=165  x=42    y=39    width=13    height=16    xoffset=-2    yoffset=3     xadvance=9     page=0  chnl=15
char id=166  x=501   y=0     width=5     height=18    xoffset=0     yoffset=3     xadvance=5     page=0  chnl=15
char id=167  x=421   y=0     width=11    height=18    xoffset=-1    yoffset=3     xadvance=9     page=0  chnl=15
char id=168  x=151   y=71    width=10    height=4     xoffset=-2    yoffset=2     xadvance=6     page=0  chnl=15
char id=169  x=126   y=55    width=16    height=15    xoffset=-1    yoffset=4     xadvance=14    page=0  chnl=15
char id=170  x=29    y=73    width=8     height=9     xoffset=-1    yoffset=3     xadvance=6     page=0  chnl=15
char id=171  x=393   y=53    width=9     height=12    xoffset=-1    yoffset=6     xadvance=7     page=0  chnl=15
char id=172  x=56    y=73    width=12    height=7     xoffset=-1    yoffset=7     xadvance=10    page=0  chnl=15
char id=173  x=171   y=70    width=8     height=4     xoffset=-1    yoffset=10    xadvance=5     page=0  chnl=15
char id=174  x=109   y=55    width=16    height=15    xoffset=-1    yoffset=4     xadvance=14    page=0  chnl=15
char id=175  x=198   y=70    width=14    height=3     xoffset=-2    yoffset=1     xadvance=10    page=0  chnl=15
char id=176  x=47    y=73    width=8     height=8     xoffset=-1    yoffset=3     xadvance=6     page=0  chnl=15
char id=177  x=373   y=54    width=12    height=13    xoffset=-1    yoffset=4     xadvance=10    page=0  chnl=15
char id=178  x=0     y=74    width=8     height=10    xoffset=-1    yoffset=3     xadvance=6     page=0  chnl=15
char id=179  x=498   y=53    width=8     height=10    xoffset=-1    yoffset=3     xadvance=6     page=0  chnl=15
char id=180  x=189   y=70    width=8     height=4     xoffset=0     yoffset=2     xadvance=6     page=0  chnl=15
char id=181  x=481   y=0     width=10    height=18    xoffset=-1    yoffset=5     xadvance=8     page=0  chnl=15
char id=182  x=369   y=0     width=13    height=18    xoffset=-1    yoffset=3     xadvance=10    page=0  chnl=15
char id=183  x=144   y=71    width=6     height=5     xoffset=0     yoffset=9     xadvance=6     page=0  chnl=15
char id=184  x=116   y=71    width=7     height=6     xoffset=-1    yoffset=17    xadvance=6     page=0  chnl=15
char id=185  x=9     y=74    width=7     height=10    xoffset=-2    yoffset=3     xadvance=4     page=0  chnl=15
char id=186  x=38    y=73    width=8     height=9     xoffset=-1    yoffset=3     xadvance=6     page=0  chnl=15
char id=187  x=403   y=53    width=9     height=12    xoffset=-1    yoffset=6     xadvance=7     page=0  chnl=15
char id=188  x=437   y=19    width=15    height=16    xoffset=-2    yoffset=3     xadvance=11    page=0  chnl=15
char id=189  x=405   y=19    width=15    height=16    xoffset=-2    yoffset=3     xadvance=12    page=0  chnl=15
char id=190  x=389   y=19    width=15    height=16    xoffset=-1    yoffset=3     xadvance=12    page=0  chnl=15
char id=191  x=36    y=21    width=12    height=17    xoffset=-2    yoffset=4     xadvance=9     page=0  chnl=15
char id=192  x=82    y=0     width=13    height=19    xoffset=-3    yoffset=0     xadvance=9     page=0  chnl=15
char id=193  x=96    y=0     width=13    height=19    xoffset=-3    yoffset=0     xadvance=9     page=0  chnl=15
char id=194  x=68    y=0     width=13    height=19    xoffset=-3    yoffset=0     xadvance=9     page=0  chnl=15
char id=195  x=0     y=0     width=13    height=20    xoffset=-3    yoffset=-1    xadvance=9     page=0  chnl=15
char id=196  x=110   y=0     width=13    height=19    xoffset=-3    yoffset=0     xadvance=9     page=0  chnl=15
char id=197  x=14    y=0     width=13    height=20    xoffset=-3    yoffset=-1    xadvance=9     page=0  chnl=15
char id=198  x=356   y=20    width=16    height=16    xoffset=-2    yoffset=3     xadvance=13    page=0  chnl=15
char id=199  x=150   y=0     width=12    height=19    xoffset=-1    yoffset=3     xadvance=10    page=0  chnl=15
char id=200  x=311   y=0     width=9     height=19    xoffset=-1    yoffset=0     xadvance=7     page=0  chnl=15
char id=201  x=341   y=0     width=9     height=19    xoffset=-1    yoffset=0     xadvance=7     page=0  chnl=15
char id=202  x=300   y=0     width=10    height=19    xoffset=-1    yoffset=0     xadvance=7     page=0  chnl=15
char id=203  x=267   y=0     width=10    height=19    xoffset=-1    yoffset=0     xadvance=7     page=0  chnl=15
char id=204  x=360   y=0     width=8     height=19    xoffset=-2    yoffset=0     xadvance=5     page=0  chnl=15
char id=205  x=351   y=0     width=8     height=19    xoffset=-1    yoffset=0     xadvance=5     page=0  chnl=15
char id=206  x=289   y=0     width=10    height=19    xoffset=-2    yoffset=0     xadvance=5     page=0  chnl=15
char id=207  x=278   y=0     width=10    height=19    xoffset=-2    yoffset=0     xadvance=5     page=0  chnl=15
char id=208  x=496   y=19    width=13    height=16    xoffset=-2    yoffset=3     xadvance=10    page=0  chnl=15
char id=209  x=41    y=0     width=12    height=20    xoffset=-1    yoffset=-1    xadvance=10    page=0  chnl=15
char id=210  x=202   y=0     width=12    height=19    xoffset=-1    yoffset=0     xadvance=10    page=0  chnl=15
char id=211  x=215   y=0     width=12    height=19    xoffset=-1    yoffset=0     xadvance=10    page=0  chnl=15
char id=212  x=189   y=0     width=12    height=19    xoffset=-1    yoffset=0     xadvance=10    page=0  chnl=15
char id=213  x=28    y=0     width=12    height=20    xoffset=-1    yoffset=-1    xadvance=10    page=0  chnl=15
char id=214  x=124   y=0     width=12    height=19    xoffset=-1    yoffset=0     xadvance=10    page=0  chnl=15
char id=215  x=485   y=53    width=12    height=10    xoffset=-1    yoffset=6     xadvance=10    page=0  chnl=15
char id=216  x=453   y=19    width=14    height=16    xoffset=-2    yoffset=3     xadvance=10    page=0  chnl=15
char id=217  x=254   y=0     width=12    height=19    xoffset=-1    yoffset=0     xadvance=10    page=0  chnl=15
char id=218  x=241   y=0     width=12    height=19    xoffset=-1    yoffset=0     xadvance=10    page=0  chnl=15
char id=219  x=228   y=0     width=12    height=19    xoffset=-1    yoffset=0     xadvance=10    page=0  chnl=15
char id=220  x=176   y=0     width=12    height=19    xoffset=-1    yoffset=0     xadvance=10    page=0  chnl=15
char id=221  x=54    y=0     width=13    height=19    xoffset=-2    yoffset=0     xadvance=9     page=0  chnl=15
char id=222  x=354   y=37    width=11    height=16    xoffset=-1    yoffset=3     xadvance=9     page=0  chnl=15
char id=223  x=23    y=21    width=12    height=17    xoffset=-1    yoffset=2     xadvance=10    page=0  chnl=15
char id=224  x=97    y=20    width=11    height=17    xoffset=-1    yoffset=2     xadvance=9     page=0  chnl=15
char id=225  x=85    y=20    width=11    height=17    xoffset=-1    yoffset=2     xadvance=9     page=0  chnl=15
char id=226  x=61    y=20    width=11    height=17    xoffset=-1    yoffset=2     xadvance=9     page=0  chnl=15
char id=227  x=409   y=0     width=11    height=18    xoffset=-1    yoffset=1     xadvance=9     page=0  chnl=15
char id=228  x=49    y=21    width=11    height=17    xoffset=-1    yoffset=2     xadvance=9     page=0  chnl=15
char id=229  x=433   y=0     width=11    height=18    xoffset=-1    yoffset=1     xadvance=9     page=0  chnl=15
char id=230  x=168   y=55    width=16    height=14    xoffset=-1    yoffset=5     xadvance=14    page=0  chnl=15
char id=231  x=157   y=20    width=11    height=17    xoffset=-1    yoffset=5     xadvance=9     page=0  chnl=15
char id=232  x=133   y=20    width=11    height=17    xoffset=-1    yoffset=2     xadvance=9     page=0  chnl=15
char id=233  x=169   y=20    width=11    height=17    xoffset=-1    yoffset=2     xadvance=9     page=0  chnl=15
char id=234  x=181   y=20    width=11    height=17    xoffset=-1    yoffset=2     xadvance=9     page=0  chnl=15
char id=235  x=193   y=20    width=11    height=17    xoffset=-1    yoffset=2     xadvance=9     page=0  chnl=15
char id=236  x=319   y=20    width=8     height=17    xoffset=-2    yoffset=2     xadvance=5     page=0  chnl=15
char id=237  x=310   y=20    width=8     height=17    xoffset=-1    yoffset=2     xadvance=5     page=0  chnl=15
char id=238  x=299   y=20    width=10    height=17    xoffset=-2    yoffset=2     xadvance=5     page=0  chnl=15
char id=239  x=277   y=20    width=10    height=17    xoffset=-2    yoffset=2     xadvance=5     page=0  chnl=15
char id=240  x=474   y=36    width=11    height=16    xoffset=-1    yoffset=3     xadvance=9     page=0  chnl=15
char id=241  x=445   y=0     width=11    height=18    xoffset=-1    yoffset=1     xadvance=9     page=0  chnl=15
char id=242  x=205   y=20    width=11    height=17    xoffset=-1    yoffset=2     xadvance=9     page=0  chnl=15
char id=243  x=217   y=20    width=11    height=17    xoffset=-1    yoffset=2     xadvance=9     page=0  chnl=15
char id=244  x=229   y=20    width=11    height=17    xoffset=-1    yoffset=2     xadvance=9     page=0  chnl=15
char id=245  x=457   y=0     width=11    height=18    xoffset=-1    yoffset=1     xadvance=9     page=0  chnl=15
char id=246  x=241   y=20    width=11    height=17    xoffset=-1    yoffset=2     xadvance=9     page=0  chnl=15
char id=247  x=472   y=53    width=12    height=10    xoffset=-1    yoffset=6     xadvance=10    page=0  chnl=15
char id=248  x=292   y=55    width=11    height=14    xoffset=-1    yoffset=5     xadvance=9     page=0  chnl=15
char id=249  x=253   y=20    width=11    height=17    xoffset=-1    yoffset=2     xadvance=9     page=0  chnl=15
char id=250  x=265   y=20    width=11    height=17    xoffset=-1    yoffset=2     xadvance=9     page=0  chnl=15
char id=251  x=73    y=20    width=11    height=17    xoffset=-1    yoffset=2     xadvance=9     page=0  chnl=15
char id=252  x=109   y=20    width=11    height=17    xoffset=-1    yoffset=2     xadvance=9     page=0  chnl=15
char id=253  x=163   y=0     width=12    height=19    xoffset=-2    yoffset=2     xadvance=8     page=0  chnl=15
char id=254  x=469   y=0     width=11    height=18    xoffset=-1    yoffset=3     xadvance=9     page=0  chnl=15
char id=255  x=137   y=0     width=12    height=19    xoffset=-2    yoffset=2     xadvance=8     page=0  chnl=15
kernings count=79
kerning first=193 second=89  amount=-1  
kerning first=193 second=84  amount=-1  
kerning first=194 second=89  amount=-1  
kerning first=194 second=84  amount=-1  
kerning first=195 second=89  amount=-1  
kerning first=195 second=84  amount=-1  
kerning first=192 second=89  amount=-1  
kerning first=192 second=84  amount=-1  
kerning first=197 second=89  amount=-1  
kerning first=197 second=84  amount=-1  
kerning first=196 second=89  amount=-1  
kerning first=196 second=84  amount=-1  
kerning first=53  second=49  amount=-1  
kerning first=118 second=121 amount=1   
kerning first=53  second=55  amount=-1  
kerning first=116 second=46  amount=1   
kerning first=116 second=44  amount=1   
kerning first=114 second=46  amount=-1  
kerning first=114 second=44  amount=-1  
kerning first=89  second=193 amount=-1  
kerning first=89  second=194 amount=-1  
kerning first=89  second=195 amount=-1  
kerning first=89  second=192 amount=-1  
kerning first=89  second=230 amount=-1  
kerning first=89  second=198 amount=-1  
kerning first=89  second=231 amount=-1  
kerning first=89  second=197 amount=-1  
kerning first=65  second=84  amount=-1  
kerning first=89  second=196 amount=-1  
kerning first=89  second=115 amount=-1  
kerning first=89  second=113 amount=-1  
kerning first=65  second=89  amount=-1  
kerning first=89  second=111 amount=-1  
kerning first=89  second=103 amount=-1  
kerning first=89  second=101 amount=-1  
kerning first=89  second=100 amount=-1  
kerning first=89  second=99  amount=-1  
kerning first=89  second=97  amount=-1  
kerning first=89  second=74  amount=-1  
kerning first=89  second=65  amount=-1  
kerning first=89  second=47  amount=-1  
kerning first=89  second=46  amount=-2  
kerning first=89  second=44  amount=-2  
kerning first=88  second=46  amount=1   
kerning first=88  second=44  amount=1   
kerning first=87  second=47  amount=-1  
kerning first=87  second=46  amount=-1  
kerning first=70  second=44  amount=-1  
kerning first=70  second=46  amount=-1  
kerning first=87  second=44  amount=-1  
kerning first=86  second=47  amount=-1  
kerning first=86  second=46  amount=-1  
kerning first=86  second=44  amount=-1  
kerning first=84  second=193 amount=-1  
kerning first=84  second=194 amount=-1  
kerning first=84  second=195 amount=-1  
kerning first=84  second=192 amount=-1  
kerning first=84  second=230 amount=-1  
kerning first=84  second=198 amount=-1  
kerning first=84  second=231 amount=-1  
kerning first=84  second=197 amount=-1  
kerning first=84  second=196 amount=-1  
kerning first=84  second=101 amount=-1  
kerning first=84  second=99  amount=-1  
kerning first=84  second=97  amount=-1  
kerning first=84  second=74  amount=-1  
kerning first=84  second=65  amount=-1  
kerning first=84  second=47  amount=-1  
kerning first=84  second=46  amount=-1  
kerning first=84  second=45  amount=-1  
kerning first=84  second=44  amount=-1  
kerning first=80  second=74  amount=-1  
kerning first=80  second=47  amount=-1  
kerning first=80  second=46  amount=-2  
kerning first=80  second=44  amount=-2  
kerning first=76  second=89  amount=-1  
kerning first=76  second=87  amount=-1  
kerning first=76  second=86  amount=-1  
kerning first=76  second=84  amount=-1  
