info face="Bauhaus 93" size=-32 bold=0 italic=0 charset="" unicode=1 stretchH=100 smooth=1 aa=1 padding=0,0,0,0 spacing=1,1 outline=0
common lineHeight=36 base=29 scaleW=256 scaleH=256 pages=2 packed=0 alphaChnl=1 redChnl=0 greenChnl=0 blueChnl=0
page id=0 file="Bauhaus93_TGA_0.tga"
page id=1 file="Bauhaus93_TGA_1.tga"
chars count=190
char id=32   x=46    y=29    width=3     height=1     xoffset=-1    yoffset=35    xadvance=8     page=0  chnl=15
char id=33   x=247   y=170   width=8     height=21    xoffset=3     yoffset=8     xadvance=14    page=0  chnl=15
char id=34   x=0     y=17    width=14    height=9     xoffset=1     yoffset=7     xadvance=16    page=1  chnl=15
char id=35   x=121   y=153   width=20    height=21    xoffset=1     yoffset=8     xadvance=22    page=0  chnl=15
char id=36   x=54    y=57    width=12    height=26    xoffset=3     yoffset=5     xadvance=18    page=0  chnl=15
char id=37   x=226   y=104   width=28    height=21    xoffset=1     yoffset=8     xadvance=30    page=0  chnl=15
char id=38   x=209   y=173   width=18    height=21    xoffset=3     yoffset=8     xadvance=24    page=0  chnl=15
char id=39   x=15    y=17    width=8     height=8     xoffset=0     yoffset=8     xadvance=8     page=1  chnl=15
char id=40   x=173   y=57    width=9     height=25    xoffset=2     yoffset=8     xadvance=12    page=0  chnl=15
char id=41   x=183   y=57    width=9     height=25    xoffset=1     yoffset=8     xadvance=12    page=0  chnl=15
char id=42   x=39    y=244   width=12    height=10    xoffset=2     yoffset=7     xadvance=16    page=0  chnl=15
char id=43   x=62    y=0     width=18    height=16    xoffset=3     yoffset=10    xadvance=24    page=1  chnl=15
char id=44   x=244   y=0     width=8     height=9     xoffset=2     yoffset=22    xadvance=12    page=1  chnl=15
char id=45   x=97    y=17    width=9     height=4     xoffset=-1    yoffset=17    xadvance=7     page=1  chnl=15
char id=46   x=34    y=17    width=9     height=7     xoffset=2     yoffset=22    xadvance=12    page=1  chnl=15
char id=47   x=129   y=57    width=10    height=25    xoffset=0     yoffset=8     xadvance=11    page=0  chnl=15
char id=48   x=161   y=195   width=16    height=21    xoffset=1     yoffset=8     xadvance=18    page=0  chnl=15
char id=49   x=246   y=148   width=8     height=21    xoffset=5     yoffset=8     xadvance=18    page=0  chnl=15
char id=50   x=178   y=195   width=16    height=21    xoffset=1     yoffset=8     xadvance=18    page=0  chnl=15
char id=51   x=109   y=221   width=12    height=21    xoffset=3     yoffset=8     xadvance=18    page=0  chnl=15
char id=52   x=126   y=197   width=17    height=21    xoffset=1     yoffset=8     xadvance=18    page=0  chnl=15
char id=53   x=80    y=222   width=14    height=21    xoffset=2     yoffset=8     xadvance=18    page=0  chnl=15
char id=54   x=188   y=83    width=18    height=22    xoffset=0     yoffset=7     xadvance=18    page=0  chnl=15
char id=55   x=229   y=192   width=16    height=21    xoffset=1     yoffset=8     xadvance=18    page=0  chnl=15
char id=56   x=195   y=195   width=16    height=21    xoffset=1     yoffset=8     xadvance=18    page=0  chnl=15
char id=57   x=207   y=81    width=18    height=22    xoffset=0     yoffset=8     xadvance=18    page=0  chnl=15
char id=58   x=180   y=0     width=9     height=16    xoffset=2     yoffset=13    xadvance=12    page=1  chnl=15
char id=59   x=241   y=214   width=9     height=18    xoffset=2     yoffset=13    xadvance=12    page=0  chnl=15
char id=60   x=205   y=217   width=16    height=20    xoffset=0     yoffset=8     xadvance=16    page=0  chnl=15
char id=61   x=52    y=244   width=18    height=9     xoffset=3     yoffset=14    xadvance=24    page=0  chnl=15
char id=62   x=188   y=217   width=16    height=20    xoffset=0     yoffset=8     xadvance=16    page=0  chnl=15
char id=63   x=49    y=222   width=15    height=21    xoffset=1     yoffset=8     xadvance=17    page=0  chnl=15
char id=64   x=0     y=156   width=24    height=21    xoffset=0     yoffset=8     xadvance=24    page=0  chnl=15
char id=65   x=90    y=199   width=17    height=21    xoffset=1     yoffset=8     xadvance=19    page=0  chnl=15
char id=66   x=72    y=200   width=17    height=21    xoffset=1     yoffset=8     xadvance=18    page=0  chnl=15
char id=67   x=151   y=129   width=24    height=21    xoffset=0     yoffset=8     xadvance=24    page=0  chnl=15
char id=68   x=98    y=153   width=22    height=21    xoffset=1     yoffset=8     xadvance=23    page=0  chnl=15
char id=69   x=65    y=222   width=14    height=21    xoffset=1     yoffset=8     xadvance=15    page=0  chnl=15
char id=70   x=212   y=195   width=16    height=21    xoffset=1     yoffset=8     xadvance=15    page=0  chnl=15
char id=71   x=205   y=151   width=20    height=21    xoffset=0     yoffset=8     xadvance=20    page=0  chnl=15
char id=72   x=0     y=178   width=18    height=21    xoffset=1     yoffset=8     xadvance=20    page=0  chnl=15
char id=73   x=180   y=217   width=7     height=21    xoffset=2     yoffset=8     xadvance=11    page=0  chnl=15
char id=74   x=158   y=219   width=10    height=21    xoffset=-1    yoffset=8     xadvance=10    page=0  chnl=15
char id=75   x=142   y=151   width=20    height=21    xoffset=1     yoffset=8     xadvance=21    page=0  chnl=15
char id=76   x=135   y=219   width=11    height=21    xoffset=1     yoffset=8     xadvance=11    page=0  chnl=15
char id=77   x=26    y=134   width=24    height=21    xoffset=1     yoffset=8     xadvance=26    page=0  chnl=15
char id=78   x=108   y=199   width=17    height=21    xoffset=1     yoffset=8     xadvance=19    page=0  chnl=15
char id=79   x=126   y=129   width=24    height=21    xoffset=0     yoffset=8     xadvance=24    page=0  chnl=15
char id=80   x=18    y=200   width=17    height=21    xoffset=1     yoffset=8     xadvance=18    page=0  chnl=15
char id=81   x=193   y=57    width=24    height=23    xoffset=0     yoffset=8     xadvance=24    page=0  chnl=15
char id=82   x=226   y=148   width=19    height=21    xoffset=1     yoffset=8     xadvance=19    page=0  chnl=15
char id=83   x=95    y=221   width=13    height=21    xoffset=0     yoffset=8     xadvance=13    page=0  chnl=15
char id=84   x=133   y=175   width=18    height=21    xoffset=-1    yoffset=8     xadvance=16    page=0  chnl=15
char id=85   x=54    y=200   width=17    height=21    xoffset=1     yoffset=8     xadvance=19    page=0  chnl=15
char id=86   x=110   y=83    width=20    height=22    xoffset=-2    yoffset=8     xadvance=17    page=0  chnl=15
char id=87   x=201   y=129   width=24    height=21    xoffset=1     yoffset=8     xadvance=26    page=0  chnl=15
char id=88   x=184   y=151   width=20    height=21    xoffset=-2    yoffset=8     xadvance=16    page=0  chnl=15
char id=89   x=163   y=151   width=20    height=21    xoffset=-2    yoffset=8     xadvance=16    page=0  chnl=15
char id=90   x=38    y=178   width=18    height=21    xoffset=-1    yoffset=8     xadvance=17    page=0  chnl=15
char id=91   x=162   y=57    width=10    height=25    xoffset=1     yoffset=8     xadvance=12    page=0  chnl=15
char id=92   x=140   y=57    width=10    height=25    xoffset=1     yoffset=8     xadvance=11    page=0  chnl=15
char id=93   x=151   y=57    width=10    height=25    xoffset=1     yoffset=8     xadvance=12    page=0  chnl=15
char id=94   x=22    y=244   width=16    height=10    xoffset=0     yoffset=8     xadvance=16    page=0  chnl=15
char id=95   x=125   y=17    width=18    height=3     xoffset=-1    yoffset=31    xadvance=16    page=1  chnl=15
char id=96   x=116   y=17    width=8     height=4     xoffset=3     yoffset=7     xadvance=16    page=1  chnl=15
char id=97   x=100   y=0     width=18    height=16    xoffset=0     yoffset=13    xadvance=19    page=1  chnl=15
char id=98   x=76    y=177   width=18    height=21    xoffset=1     yoffset=8     xadvance=19    page=0  chnl=15
char id=99   x=169   y=239   width=18    height=16    xoffset=0     yoffset=13    xadvance=18    page=0  chnl=15
char id=100  x=152   y=173   width=18    height=21    xoffset=0     yoffset=8     xadvance=19    page=0  chnl=15
char id=101  x=234   y=237   width=18    height=16    xoffset=0     yoffset=13    xadvance=18    page=0  chnl=15
char id=102  x=147   y=219   width=10    height=21    xoffset=1     yoffset=8     xadvance=11    page=0  chnl=15
char id=103  x=38    y=86    width=17    height=23    xoffset=0     yoffset=13    xadvance=18    page=0  chnl=15
char id=104  x=17    y=222   width=15    height=21    xoffset=1     yoffset=8     xadvance=17    page=0  chnl=15
char id=105  x=102   y=83    width=7     height=23    xoffset=1     yoffset=6     xadvance=9     page=0  chnl=15
char id=106  x=16    y=0     width=13    height=30    xoffset=-3    yoffset=6     xadvance=11    page=0  chnl=15
char id=107  x=19    y=178   width=18    height=21    xoffset=1     yoffset=8     xadvance=17    page=0  chnl=15
char id=108  x=246   y=192   width=7     height=21    xoffset=1     yoffset=8     xadvance=9     page=0  chnl=15
char id=109  x=0     y=0     width=23    height=16    xoffset=1     yoffset=13    xadvance=25    page=1  chnl=15
char id=110  x=153   y=0     width=15    height=16    xoffset=1     yoffset=13    xadvance=17    page=1  chnl=15
char id=111  x=81    y=0     width=18    height=16    xoffset=0     yoffset=13    xadvance=18    page=1  chnl=15
char id=112  x=0     y=111   width=18    height=22    xoffset=1     yoffset=13    xadvance=19    page=0  chnl=15
char id=113  x=19    y=111   width=18    height=22    xoffset=0     yoffset=13    xadvance=19    page=0  chnl=15
char id=114  x=169   y=0     width=10    height=16    xoffset=1     yoffset=13    xadvance=10    page=1  chnl=15
char id=115  x=230   y=0     width=13    height=15    xoffset=-1    yoffset=14    xadvance=12    page=1  chnl=15
char id=116  x=169   y=217   width=10    height=21    xoffset=0     yoffset=8     xadvance=11    page=0  chnl=15
char id=117  x=214   y=0     width=15    height=15    xoffset=1     yoffset=14    xadvance=17    page=1  chnl=15
char id=118  x=188   y=238   width=16    height=17    xoffset=-2    yoffset=13    xadvance=12    page=0  chnl=15
char id=119  x=190   y=0     width=23    height=15    xoffset=1     yoffset=14    xadvance=25    page=1  chnl=15
char id=120  x=137   y=0     width=15    height=16    xoffset=1     yoffset=13    xadvance=17    page=1  chnl=15
char id=121  x=56    y=84    width=15    height=23    xoffset=1     yoffset=13    xadvance=17    page=0  chnl=15
char id=122  x=119   y=0     width=17    height=16    xoffset=-1    yoffset=13    xadvance=16    page=1  chnl=15
char id=123  x=116   y=57    width=12    height=25    xoffset=0     yoffset=8     xadvance=12    page=0  chnl=15
char id=124  x=87    y=57    width=8     height=26    xoffset=4     yoffset=8     xadvance=16    page=0  chnl=15
char id=125  x=67    y=57    width=10    height=26    xoffset=1     yoffset=8     xadvance=12    page=0  chnl=15
char id=126  x=44    y=17    width=17    height=6     xoffset=2     yoffset=5     xadvance=21    page=1  chnl=15
char id=160  x=50    y=57    width=3     height=1     xoffset=-1    yoffset=35    xadvance=8     page=0  chnl=15
char id=161  x=217   y=104   width=8     height=22    xoffset=3     yoffset=13    xadvance=14    page=0  chnl=15
char id=162  x=122   y=221   width=12    height=21    xoffset=3     yoffset=8     xadvance=18    page=0  chnl=15
char id=163  x=0     y=222   width=16    height=21    xoffset=1     yoffset=8     xadvance=18    page=0  chnl=15
char id=164  x=50    y=156   width=23    height=21    xoffset=0     yoffset=8     xadvance=23    page=0  chnl=15
char id=165  x=114   y=175   width=18    height=21    xoffset=0     yoffset=8     xadvance=18    page=0  chnl=15
char id=166  x=78    y=57    width=8     height=26    xoffset=4     yoffset=8     xadvance=16    page=0  chnl=15
char id=167  x=37    y=59    width=16    height=26    xoffset=0     yoffset=8     xadvance=16    page=0  chnl=15
char id=168  x=62    y=17    width=16    height=6     xoffset=0     yoffset=6     xadvance=16    page=1  chnl=15
char id=169  x=101   y=131   width=24    height=21    xoffset=0     yoffset=8     xadvance=24    page=0  chnl=15
char id=170  x=155   y=241   width=12    height=12    xoffset=0     yoffset=8     xadvance=12    page=0  chnl=15
char id=171  x=0     y=244   width=10    height=11    xoffset=1     yoffset=16    xadvance=12    page=0  chnl=15
char id=172  x=71    y=244   width=16    height=9     xoffset=0     yoffset=20    xadvance=16    page=0  chnl=15
char id=173  x=87    y=17    width=9     height=4     xoffset=-1    yoffset=17    xadvance=7     page=1  chnl=15
char id=174  x=76    y=131   width=24    height=21    xoffset=0     yoffset=8     xadvance=24    page=0  chnl=15
char id=176  x=115   y=243   width=13    height=11    xoffset=0     yoffset=8     xadvance=13    page=0  chnl=15
char id=177  x=190   y=173   width=18    height=21    xoffset=3     yoffset=8     xadvance=24    page=0  chnl=15
char id=178  x=135   y=241   width=10    height=13    xoffset=1     yoffset=8     xadvance=12    page=0  chnl=15
char id=179  x=146   y=241   width=8     height=13    xoffset=2     yoffset=8     xadvance=12    page=0  chnl=15
char id=180  x=107   y=17    width=8     height=4     xoffset=5     yoffset=7     xadvance=16    page=1  chnl=15
char id=181  x=144   y=197   width=16    height=21    xoffset=0     yoffset=14    xadvance=16    page=0  chnl=15
char id=182  x=96    y=57    width=19    height=25    xoffset=0     yoffset=8     xadvance=24    page=0  chnl=15
char id=183  x=24    y=17    width=9     height=7     xoffset=2     yoffset=18    xadvance=12    page=1  chnl=15
char id=184  x=79    y=17    width=7     height=5     xoffset=4     yoffset=29    xadvance=16    page=1  chnl=15
char id=185  x=108   y=243   width=6     height=12    xoffset=3     yoffset=8     xadvance=12    page=0  chnl=15
char id=186  x=95    y=243   width=12    height=12    xoffset=0     yoffset=8     xadvance=12    page=0  chnl=15
char id=187  x=11    y=244   width=10    height=11    xoffset=1     yoffset=16    xadvance=12    page=0  chnl=15
char id=188  x=176   y=129   width=24    height=21    xoffset=3     yoffset=8     xadvance=28    page=0  chnl=15
char id=189  x=226   y=126   width=24    height=21    xoffset=3     yoffset=8     xadvance=28    page=0  chnl=15
char id=190  x=0     y=134   width=25    height=21    xoffset=2     yoffset=8     xadvance=28    page=0  chnl=15
char id=191  x=181   y=106   width=15    height=22    xoffset=1     yoffset=13    xadvance=17    page=0  chnl=15
char id=192  x=169   y=29    width=17    height=27    xoffset=1     yoffset=2     xadvance=19    page=0  chnl=15
char id=193  x=187   y=29    width=17    height=27    xoffset=1     yoffset=2     xadvance=19    page=0  chnl=15
char id=194  x=132   y=0     width=17    height=28    xoffset=1     yoffset=1     xadvance=19    page=0  chnl=15
char id=195  x=205   y=29    width=17    height=27    xoffset=1     yoffset=2     xadvance=19    page=0  chnl=15
char id=196  x=114   y=0     width=17    height=28    xoffset=1     yoffset=1     xadvance=19    page=0  chnl=15
char id=197  x=96    y=0     width=17    height=28    xoffset=1     yoffset=1     xadvance=19    page=0  chnl=15
char id=198  x=74    y=155   width=23    height=21    xoffset=1     yoffset=8     xadvance=24    page=0  chnl=15
char id=199  x=0     y=31    width=24    height=27    xoffset=0     yoffset=8     xadvance=24    page=0  chnl=15
char id=200  x=0     y=59    width=14    height=27    xoffset=1     yoffset=2     xadvance=15    page=0  chnl=15
char id=201  x=223   y=29    width=16    height=27    xoffset=1     yoffset=2     xadvance=15    page=0  chnl=15
char id=202  x=202   y=0     width=14    height=28    xoffset=1     yoffset=1     xadvance=15    page=0  chnl=15
char id=203  x=186   y=0     width=15    height=28    xoffset=1     yoffset=1     xadvance=15    page=0  chnl=15
char id=204  x=26    y=59    width=10    height=27    xoffset=-1    yoffset=2     xadvance=11    page=0  chnl=15
char id=205  x=15    y=59    width=10    height=27    xoffset=2     yoffset=2     xadvance=11    page=0  chnl=15
char id=206  x=217   y=0     width=11    height=28    xoffset=0     yoffset=1     xadvance=11    page=0  chnl=15
char id=207  x=240   y=28    width=15    height=27    xoffset=-2    yoffset=2     xadvance=11    page=0  chnl=15
char id=208  x=51    y=133   width=24    height=21    xoffset=-1    yoffset=8     xadvance=23    page=0  chnl=15
char id=209  x=151   y=29    width=17    height=27    xoffset=1     yoffset=2     xadvance=19    page=0  chnl=15
char id=210  x=25    y=31    width=24    height=27    xoffset=0     yoffset=2     xadvance=24    page=0  chnl=15
char id=211  x=229   y=0     width=24    height=27    xoffset=0     yoffset=2     xadvance=24    page=0  chnl=15
char id=212  x=46    y=0     width=24    height=28    xoffset=0     yoffset=1     xadvance=24    page=0  chnl=15
char id=213  x=50    y=29    width=24    height=27    xoffset=0     yoffset=2     xadvance=24    page=0  chnl=15
char id=214  x=71    y=0     width=24    height=28    xoffset=0     yoffset=1     xadvance=24    page=0  chnl=15
char id=215  x=43    y=0     width=18    height=16    xoffset=3     yoffset=10    xadvance=24    page=1  chnl=15
char id=216  x=25    y=156   width=24    height=21    xoffset=0     yoffset=8     xadvance=24    page=0  chnl=15
char id=217  x=133   y=29    width=17    height=27    xoffset=1     yoffset=2     xadvance=19    page=0  chnl=15
char id=218  x=115   y=29    width=17    height=27    xoffset=1     yoffset=2     xadvance=19    page=0  chnl=15
char id=219  x=168   y=0     width=17    height=28    xoffset=1     yoffset=1     xadvance=19    page=0  chnl=15
char id=220  x=150   y=0     width=17    height=28    xoffset=1     yoffset=1     xadvance=19    page=0  chnl=15
char id=221  x=75    y=29    width=20    height=27    xoffset=-2    yoffset=2     xadvance=16    page=0  chnl=15
char id=222  x=0     y=200   width=17    height=21    xoffset=1     yoffset=8     xadvance=18    page=0  chnl=15
char id=223  x=36    y=200   width=17    height=21    xoffset=1     yoffset=8     xadvance=18    page=0  chnl=15
char id=224  x=38    y=110   width=18    height=22    xoffset=0     yoffset=7     xadvance=19    page=0  chnl=15
char id=225  x=57    y=108   width=18    height=22    xoffset=0     yoffset=7     xadvance=19    page=0  chnl=15
char id=226  x=76    y=108   width=18    height=22    xoffset=0     yoffset=7     xadvance=19    page=0  chnl=15
char id=227  x=95    y=177   width=18    height=21    xoffset=0     yoffset=8     xadvance=19    page=0  chnl=15
char id=228  x=19    y=87    width=18    height=23    xoffset=0     yoffset=6     xadvance=19    page=0  chnl=15
char id=229  x=0     y=87    width=18    height=23    xoffset=0     yoffset=6     xadvance=19    page=0  chnl=15
char id=230  x=205   y=238   width=28    height=16    xoffset=0     yoffset=13    xadvance=28    page=0  chnl=15
char id=231  x=57    y=178   width=18    height=21    xoffset=0     yoffset=13    xadvance=18    page=0  chnl=15
char id=232  x=226   y=81    width=18    height=22    xoffset=0     yoffset=7     xadvance=18    page=0  chnl=15
char id=233  x=95    y=108   width=18    height=22    xoffset=0     yoffset=7     xadvance=18    page=0  chnl=15
char id=234  x=114   y=106   width=18    height=22    xoffset=0     yoffset=7     xadvance=18    page=0  chnl=15
char id=235  x=237   y=57    width=18    height=23    xoffset=0     yoffset=6     xadvance=18    page=0  chnl=15
char id=236  x=207   y=104   width=9     height=22    xoffset=-1    yoffset=7     xadvance=9     page=0  chnl=15
char id=237  x=197   y=106   width=9     height=22    xoffset=1     yoffset=7     xadvance=9     page=0  chnl=15
char id=238  x=245   y=81    width=10    height=22    xoffset=0     yoffset=7     xadvance=9     page=0  chnl=15
char id=239  x=88    y=84    width=13    height=23    xoffset=-2    yoffset=6     xadvance=9     page=0  chnl=15
char id=240  x=228   y=170   width=18    height=21    xoffset=0     yoffset=8     xadvance=18    page=0  chnl=15
char id=241  x=33    y=222   width=15    height=21    xoffset=1     yoffset=8     xadvance=17    page=0  chnl=15
char id=242  x=131   y=83    width=18    height=22    xoffset=0     yoffset=7     xadvance=18    page=0  chnl=15
char id=243  x=150   y=83    width=18    height=22    xoffset=0     yoffset=7     xadvance=18    page=0  chnl=15
char id=244  x=169   y=83    width=18    height=22    xoffset=0     yoffset=7     xadvance=18    page=0  chnl=15
char id=245  x=171   y=173   width=18    height=21    xoffset=0     yoffset=8     xadvance=18    page=0  chnl=15
char id=246  x=218   y=57    width=18    height=23    xoffset=0     yoffset=6     xadvance=18    page=0  chnl=15
char id=247  x=222   y=217   width=18    height=19    xoffset=3     yoffset=8     xadvance=24    page=0  chnl=15
char id=248  x=24    y=0     width=18    height=16    xoffset=0     yoffset=13    xadvance=18    page=1  chnl=15
char id=249  x=149   y=106   width=15    height=22    xoffset=1     yoffset=7     xadvance=17    page=0  chnl=15
char id=250  x=133   y=106   width=15    height=22    xoffset=1     yoffset=7     xadvance=17    page=0  chnl=15
char id=251  x=165   y=106   width=15    height=22    xoffset=1     yoffset=7     xadvance=17    page=0  chnl=15
char id=252  x=72    y=84    width=15    height=23    xoffset=1     yoffset=6     xadvance=17    page=0  chnl=15
char id=253  x=30    y=0     width=15    height=29    xoffset=1     yoffset=7     xadvance=17    page=0  chnl=15
char id=254  x=96    y=29    width=18    height=27    xoffset=1     yoffset=8     xadvance=19    page=0  chnl=15
char id=255  x=0     y=0     width=15    height=30    xoffset=1     yoffset=6     xadvance=17    page=0  chnl=15
