info face="A.C.M.E. Secret Agent" size=-25 bold=0 italic=0 charset="" unicode=1 stretchH=100 smooth=1 aa=1 padding=0,0,0,0 spacing=1,1 outline=2
common lineHeight=35 base=27 scaleW=512 scaleH=256 pages=1 packed=0 alphaChnl=1 redChnl=0 greenChnl=0 blueChnl=0
page id=0 file="Font25A.C.M.E._Secret_Agent_o2_0.png"
chars count=164
char id=32   x=282   y=169   width=7     height=5     xoffset=-3    yoffset=32    xadvance=9     page=0  chnl=15
char id=33   x=340   y=65    width=12    height=28    xoffset=-2    yoffset=1     xadvance=10    page=0  chnl=15
char id=34   x=36    y=176   width=14    height=14    xoffset=-1    yoffset=3     xadvance=12    page=0  chnl=15
char id=35   x=480   y=143   width=20    height=18    xoffset=-2    yoffset=8     xadvance=17    page=0  chnl=15
char id=36   x=141   y=95    width=13    height=26    xoffset=-2    yoffset=4     xadvance=10    page=0  chnl=15
char id=37   x=312   y=94    width=23    height=25    xoffset=-2    yoffset=5     xadvance=20    page=0  chnl=15
char id=38   x=18    y=176   width=17    height=15    xoffset=-2    yoffset=10    xadvance=14    page=0  chnl=15
char id=39   x=82    y=176   width=10    height=13    xoffset=-1    yoffset=4     xadvance=8     page=0  chnl=15
char id=40   x=124   y=124   width=13    height=25    xoffset=-2    yoffset=5     xadvance=9     page=0  chnl=15
char id=41   x=110   y=125   width=13    height=25    xoffset=-2    yoffset=5     xadvance=10    page=0  chnl=15
char id=42   x=104   y=176   width=15    height=12    xoffset=-1    yoffset=5     xadvance=13    page=0  chnl=15
char id=43   x=0     y=176   width=17    height=15    xoffset=-2    yoffset=10    xadvance=14    page=0  chnl=15
char id=44   x=51    y=176   width=10    height=14    xoffset=-1    yoffset=20    xadvance=8     page=0  chnl=15
char id=45   x=209   y=170   width=19    height=8     xoffset=-1    yoffset=13    xadvance=17    page=0  chnl=15
char id=46   x=198   y=170   width=10    height=9     xoffset=-1    yoffset=20    xadvance=8     page=0  chnl=15
char id=47   x=453   y=65    width=23    height=26    xoffset=-2    yoffset=4     xadvance=19    page=0  chnl=15
char id=48   x=193   y=121   width=25    height=24    xoffset=-2    yoffset=6     xadvance=22    page=0  chnl=15
char id=49   x=499   y=64    width=11    height=25    xoffset=-2    yoffset=5     xadvance=8     page=0  chnl=15
char id=50   x=288   y=94    width=23    height=25    xoffset=-2    yoffset=5     xadvance=19    page=0  chnl=15
char id=51   x=219   y=121   width=25    height=24    xoffset=-2    yoffset=6     xadvance=22    page=0  chnl=15
char id=52   x=399   y=92    width=20    height=25    xoffset=-2    yoffset=5     xadvance=17    page=0  chnl=15
char id=53   x=210   y=95    width=25    height=25    xoffset=-2    yoffset=5     xadvance=21    page=0  chnl=15
char id=54   x=183   y=95    width=26    height=25    xoffset=-2    yoffset=5     xadvance=22    page=0  chnl=15
char id=55   x=297   y=120   width=23    height=24    xoffset=-2    yoffset=6     xadvance=20    page=0  chnl=15
char id=56   x=155   y=95    width=27    height=25    xoffset=-2    yoffset=5     xadvance=24    page=0  chnl=15
char id=57   x=166   y=121   width=26    height=24    xoffset=-2    yoffset=5     xadvance=23    page=0  chnl=15
char id=58   x=501   y=141   width=10    height=18    xoffset=-2    yoffset=11    xadvance=7     page=0  chnl=15
char id=59   x=497   y=117   width=10    height=23    xoffset=-2    yoffset=11    xadvance=7     page=0  chnl=15
char id=60   x=269   y=65    width=23    height=28    xoffset=-3    yoffset=4     xadvance=18    page=0  chnl=15
char id=61   x=62    y=176   width=19    height=13    xoffset=-2    yoffset=11    xadvance=16    page=0  chnl=15
char id=62   x=317   y=65    width=22    height=28    xoffset=-2    yoffset=4     xadvance=19    page=0  chnl=15
char id=63   x=482   y=91    width=19    height=25    xoffset=-2    yoffset=4     xadvance=15    page=0  chnl=15
char id=64   x=456   y=33    width=33    height=30    xoffset=-2    yoffset=3     xadvance=30    page=0  chnl=15
char id=65   x=63    y=151   width=20    height=24    xoffset=-2    yoffset=6     xadvance=17    page=0  chnl=15
char id=66   x=84    y=151   width=19    height=24    xoffset=-2    yoffset=6     xadvance=15    page=0  chnl=15
char id=67   x=344   y=120   width=22    height=24    xoffset=-2    yoffset=6     xadvance=17    page=0  chnl=15
char id=68   x=321   y=120   width=22    height=24    xoffset=-2    yoffset=6     xadvance=18    page=0  chnl=15
char id=69   x=413   y=118   width=20    height=24    xoffset=-2    yoffset=6     xadvance=16    page=0  chnl=15
char id=70   x=434   y=118   width=20    height=24    xoffset=-3    yoffset=6     xadvance=15    page=0  chnl=15
char id=71   x=243   y=146   width=24    height=23    xoffset=-2    yoffset=6     xadvance=20    page=0  chnl=15
char id=72   x=379   y=145   width=20    height=23    xoffset=-1    yoffset=6     xadvance=17    page=0  chnl=15
char id=73   x=441   y=92    width=20    height=25    xoffset=-2    yoffset=5     xadvance=16    page=0  chnl=15
char id=74   x=420   y=92    width=20    height=25    xoffset=-1    yoffset=5     xadvance=17    page=0  chnl=15
char id=75   x=455   y=118   width=20    height=24    xoffset=-2    yoffset=6     xadvance=16    page=0  chnl=15
char id=76   x=38    y=125   width=17    height=25    xoffset=-3    yoffset=5     xadvance=13    page=0  chnl=15
char id=77   x=271   y=120   width=25    height=24    xoffset=-2    yoffset=6     xadvance=22    page=0  chnl=15
char id=78   x=477   y=64    width=21    height=26    xoffset=-2    yoffset=4     xadvance=19    page=0  chnl=15
char id=79   x=262   y=94    width=25    height=25    xoffset=-1    yoffset=5     xadvance=22    page=0  chnl=15
char id=80   x=440   y=143   width=19    height=23    xoffset=-2    yoffset=6     xadvance=15    page=0  chnl=15
char id=81   x=217   y=65    width=25    height=28    xoffset=-2    yoffset=5     xadvance=22    page=0  chnl=15
char id=82   x=43    y=98    width=19    height=26    xoffset=-2    yoffset=6     xadvance=16    page=0  chnl=15
char id=83   x=92    y=125   width=17    height=25    xoffset=-2    yoffset=5     xadvance=13    page=0  chnl=15
char id=84   x=104   y=151   width=19    height=24    xoffset=-2    yoffset=6     xadvance=15    page=0  chnl=15
char id=85   x=420   y=143   width=19    height=23    xoffset=-2    yoffset=6     xadvance=16    page=0  chnl=15
char id=86   x=19    y=125   width=18    height=25    xoffset=-2    yoffset=4     xadvance=15    page=0  chnl=15
char id=87   x=191   y=146   width=25    height=23    xoffset=-2    yoffset=6     xadvance=22    page=0  chnl=15
char id=88   x=103   y=98    width=18    height=26    xoffset=-2    yoffset=4     xadvance=15    page=0  chnl=15
char id=89   x=336   y=94    width=20    height=25    xoffset=-2    yoffset=5     xadvance=17    page=0  chnl=15
char id=90   x=315   y=145   width=21    height=23    xoffset=-2    yoffset=6     xadvance=17    page=0  chnl=15
char id=91   x=104   y=34    width=19    height=32    xoffset=-3    yoffset=1     xadvance=13    page=0  chnl=15
char id=92   x=429   y=65    width=23    height=26    xoffset=-3    yoffset=4     xadvance=19    page=0  chnl=15
char id=93   x=84    y=34    width=19    height=32    xoffset=-1    yoffset=-1    xadvance=17    page=0  chnl=15
char id=94   x=135   y=175   width=21    height=11    xoffset=-3    yoffset=-1    xadvance=14    page=0  chnl=15
char id=95   x=229   y=170   width=24    height=7     xoffset=-1    yoffset=25    xadvance=21    page=0  chnl=15
char id=96   x=93    y=176   width=10    height=13    xoffset=-1    yoffset=4     xadvance=8     page=0  chnl=15
char id=97   x=0     y=151   width=20    height=24    xoffset=-2    yoffset=6     xadvance=17    page=0  chnl=15
char id=98   x=144   y=149   width=19    height=24    xoffset=-2    yoffset=6     xadvance=15    page=0  chnl=15
char id=99   x=367   y=120   width=22    height=24    xoffset=-3    yoffset=6     xadvance=16    page=0  chnl=15
char id=100  x=390   y=118   width=22    height=24    xoffset=-2    yoffset=6     xadvance=18    page=0  chnl=15
char id=101  x=42    y=151   width=20    height=24    xoffset=-2    yoffset=6     xadvance=16    page=0  chnl=15
char id=102  x=21    y=151   width=20    height=24    xoffset=-3    yoffset=6     xadvance=15    page=0  chnl=15
char id=103  x=268   y=145   width=24    height=23    xoffset=-2    yoffset=6     xadvance=20    page=0  chnl=15
char id=104  x=358   y=145   width=20    height=23    xoffset=-1    yoffset=6     xadvance=17    page=0  chnl=15
char id=105  x=502   y=90    width=9     height=22    xoffset=-2    yoffset=7     xadvance=6     page=0  chnl=15
char id=106  x=357   y=94    width=20    height=25    xoffset=-2    yoffset=5     xadvance=16    page=0  chnl=15
char id=107  x=476   y=118   width=20    height=24    xoffset=-2    yoffset=6     xadvance=16    page=0  chnl=15
char id=108  x=56    y=125   width=17    height=25    xoffset=-3    yoffset=5     xadvance=13    page=0  chnl=15
char id=109  x=245   y=120   width=25    height=24    xoffset=-2    yoffset=6     xadvance=22    page=0  chnl=15
char id=110  x=0     y=98    width=21    height=26    xoffset=-2    yoffset=4     xadvance=19    page=0  chnl=15
char id=111  x=236   y=94    width=25    height=25    xoffset=-1    yoffset=5     xadvance=22    page=0  chnl=15
char id=112  x=460   y=143   width=19    height=23    xoffset=-2    yoffset=6     xadvance=15    page=0  chnl=15
char id=113  x=243   y=65    width=25    height=28    xoffset=-2    yoffset=5     xadvance=22    page=0  chnl=15
char id=114  x=83    y=98    width=19    height=26    xoffset=-2    yoffset=6     xadvance=16    page=0  chnl=15
char id=115  x=74    y=125   width=17    height=25    xoffset=-2    yoffset=5     xadvance=13    page=0  chnl=15
char id=116  x=124   y=150   width=19    height=24    xoffset=-2    yoffset=6     xadvance=15    page=0  chnl=15
char id=117  x=400   y=143   width=19    height=23    xoffset=-2    yoffset=6     xadvance=16    page=0  chnl=15
char id=118  x=0     y=125   width=18    height=25    xoffset=-2    yoffset=4     xadvance=15    page=0  chnl=15
char id=119  x=217   y=146   width=25    height=23    xoffset=-2    yoffset=6     xadvance=22    page=0  chnl=15
char id=120  x=122   y=97    width=18    height=26    xoffset=-2    yoffset=4     xadvance=16    page=0  chnl=15
char id=121  x=378   y=92    width=20    height=25    xoffset=-2    yoffset=5     xadvance=17    page=0  chnl=15
char id=122  x=293   y=145   width=21    height=23    xoffset=-2    yoffset=6     xadvance=17    page=0  chnl=15
char id=124  x=206   y=65    width=10    height=29    xoffset=-1    yoffset=3     xadvance=7     page=0  chnl=15
char id=126  x=157   y=174   width=23    height=10    xoffset=-3    yoffset=3     xadvance=16    page=0  chnl=15
char id=161  x=353   y=65    width=11    height=28    xoffset=-3    yoffset=1     xadvance=6     page=0  chnl=15
char id=162  x=337   y=145   width=20    height=23    xoffset=-2    yoffset=6     xadvance=17    page=0  chnl=15
char id=163  x=293   y=65    width=23    height=28    xoffset=-2    yoffset=4     xadvance=19    page=0  chnl=15
char id=165  x=22    y=98    width=20    height=26    xoffset=-1    yoffset=5     xadvance=18    page=0  chnl=15
char id=166  x=298   y=169   width=7     height=5     xoffset=-3    yoffset=32    xadvance=9     page=0  chnl=15
char id=167  x=306   y=169   width=7     height=5     xoffset=-3    yoffset=32    xadvance=9     page=0  chnl=15
char id=168  x=181   y=173   width=16    height=9     xoffset=-3    yoffset=-2    xadvance=9     page=0  chnl=15
char id=169  x=138   y=124   width=27    height=24    xoffset=-2    yoffset=6     xadvance=24    page=0  chnl=15
char id=174  x=164   y=149   width=26    height=23    xoffset=-2    yoffset=6     xadvance=23    page=0  chnl=15
char id=175  x=254   y=170   width=19    height=7     xoffset=-3    yoffset=1     xadvance=12    page=0  chnl=15
char id=176  x=120   y=176   width=14    height=12    xoffset=-3    yoffset=-2    xadvance=8     page=0  chnl=15
char id=180  x=314   y=169   width=7     height=5     xoffset=-3    yoffset=32    xadvance=9     page=0  chnl=15
char id=191  x=462   y=92    width=19    height=25    xoffset=-2    yoffset=4     xadvance=15    page=0  chnl=15
char id=192  x=42    y=0     width=20    height=33    xoffset=-2    yoffset=-2    xadvance=17    page=0  chnl=15
char id=193  x=21    y=0     width=20    height=33    xoffset=-2    yoffset=-2    xadvance=17    page=0  chnl=15
char id=194  x=409   y=0     width=22    height=32    xoffset=-3    yoffset=-1    xadvance=16    page=0  chnl=15
char id=195  x=313   y=0     width=23    height=32    xoffset=-4    yoffset=-1    xadvance=16    page=0  chnl=15
char id=196  x=89    y=67    width=20    height=30    xoffset=-2    yoffset=0     xadvance=17    page=0  chnl=15
char id=197  x=274   y=169   width=7     height=5     xoffset=-3    yoffset=32    xadvance=9     page=0  chnl=15
char id=198  x=397   y=65    width=31    height=26    xoffset=-2    yoffset=5     xadvance=27    page=0  chnl=15
char id=199  x=245   y=33    width=22    height=31    xoffset=-3    yoffset=6     xadvance=17    page=0  chnl=15
char id=200  x=476   y=0     width=20    height=32    xoffset=-2    yoffset=-2    xadvance=16    page=0  chnl=15
char id=201  x=0     y=34    width=20    height=32    xoffset=-2    yoffset=-2    xadvance=16    page=0  chnl=15
char id=202  x=176   y=33    width=22    height=31    xoffset=-3    yoffset=-1    xadvance=15    page=0  chnl=15
char id=203  x=47    y=67    width=20    height=30    xoffset=-2    yoffset=0     xadvance=16    page=0  chnl=15
char id=204  x=426   y=33    width=14    height=31    xoffset=-3    yoffset=-2    xadvance=7     page=0  chnl=15
char id=205  x=441   y=33    width=14    height=31    xoffset=-3    yoffset=-2    xadvance=7     page=0  chnl=15
char id=206  x=110   y=67    width=21    height=29    xoffset=-4    yoffset=0     xadvance=13    page=0  chnl=15
char id=207  x=189   y=65    width=16    height=29    xoffset=-4    yoffset=0     xadvance=9     page=0  chnl=15
char id=208  x=290   y=169   width=7     height=5     xoffset=-3    yoffset=32    xadvance=9     page=0  chnl=15
char id=209  x=337   y=0     width=23    height=32    xoffset=-3    yoffset=-2    xadvance=18    page=0  chnl=15
char id=210  x=105   y=0     width=25    height=32    xoffset=-1    yoffset=-2    xadvance=22    page=0  chnl=15
char id=211  x=131   y=0     width=25    height=32    xoffset=-1    yoffset=-2    xadvance=22    page=0  chnl=15
char id=212  x=183   y=0     width=25    height=32    xoffset=-1    yoffset=-2    xadvance=22    page=0  chnl=15
char id=213  x=287   y=0     width=25    height=32    xoffset=-2    yoffset=-2    xadvance=22    page=0  chnl=15
char id=214  x=150   y=33    width=25    height=31    xoffset=-1    yoffset=-1    xadvance=22    page=0  chnl=15
char id=216  x=0     y=67    width=25    height=30    xoffset=-2    yoffset=2     xadvance=22    page=0  chnl=15
char id=217  x=373   y=33    width=18    height=31    xoffset=-1    yoffset=-2    xadvance=15    page=0  chnl=15
char id=218  x=333   y=33    width=19    height=31    xoffset=-2    yoffset=-2    xadvance=16    page=0  chnl=15
char id=219  x=268   y=33    width=21    height=31    xoffset=-3    yoffset=-2    xadvance=16    page=0  chnl=15
char id=220  x=132   y=65    width=19    height=29    xoffset=-2    yoffset=0     xadvance=16    page=0  chnl=15
char id=221  x=21    y=34    width=20    height=32    xoffset=-2    yoffset=-2    xadvance=17    page=0  chnl=15
char id=223  x=63    y=98    width=19    height=26    xoffset=-2    yoffset=6     xadvance=15    page=0  chnl=15
char id=224  x=63    y=0     width=20    height=33    xoffset=-2    yoffset=-2    xadvance=17    page=0  chnl=15
char id=225  x=84    y=0     width=20    height=33    xoffset=-2    yoffset=-2    xadvance=17    page=0  chnl=15
char id=226  x=432   y=0     width=22    height=32    xoffset=-3    yoffset=-1    xadvance=16    page=0  chnl=15
char id=227  x=385   y=0     width=23    height=32    xoffset=-4    yoffset=-1    xadvance=16    page=0  chnl=15
char id=228  x=312   y=33    width=20    height=31    xoffset=-2    yoffset=-1    xadvance=17    page=0  chnl=15
char id=229  x=0     y=0     width=20    height=33    xoffset=-2    yoffset=-2    xadvance=17    page=0  chnl=15
char id=230  x=365   y=65    width=31    height=26    xoffset=-2    yoffset=5     xadvance=27    page=0  chnl=15
char id=231  x=199   y=33    width=22    height=31    xoffset=-3    yoffset=6     xadvance=17    page=0  chnl=15
char id=232  x=42    y=34    width=20    height=32    xoffset=-2    yoffset=-2    xadvance=16    page=0  chnl=15
char id=233  x=63    y=34    width=20    height=32    xoffset=-2    yoffset=-2    xadvance=16    page=0  chnl=15
char id=234  x=222   y=33    width=22    height=31    xoffset=-3    yoffset=-1    xadvance=15    page=0  chnl=15
char id=235  x=26    y=67    width=20    height=30    xoffset=-2    yoffset=0     xadvance=16    page=0  chnl=15
char id=236  x=497   y=0     width=14    height=31    xoffset=-3    yoffset=-2    xadvance=7     page=0  chnl=15
char id=237  x=411   y=33    width=14    height=31    xoffset=-3    yoffset=-2    xadvance=7     page=0  chnl=15
char id=238  x=490   y=33    width=21    height=30    xoffset=-4    yoffset=-1    xadvance=13    page=0  chnl=15
char id=239  x=172   y=65    width=16    height=29    xoffset=-4    yoffset=0     xadvance=9     page=0  chnl=15
char id=241  x=361   y=0     width=23    height=32    xoffset=-3    yoffset=-2    xadvance=19    page=0  chnl=15
char id=242  x=261   y=0     width=25    height=32    xoffset=-1    yoffset=-2    xadvance=22    page=0  chnl=15
char id=243  x=235   y=0     width=25    height=32    xoffset=-1    yoffset=-2    xadvance=22    page=0  chnl=15
char id=244  x=209   y=0     width=25    height=32    xoffset=-1    yoffset=-2    xadvance=22    page=0  chnl=15
char id=245  x=157   y=0     width=25    height=32    xoffset=-1    yoffset=-2    xadvance=22    page=0  chnl=15
char id=246  x=124   y=33    width=25    height=31    xoffset=-1    yoffset=-1    xadvance=22    page=0  chnl=15
char id=249  x=392   y=33    width=18    height=31    xoffset=-1    yoffset=-2    xadvance=15    page=0  chnl=15
char id=250  x=353   y=33    width=19    height=31    xoffset=-2    yoffset=-2    xadvance=16    page=0  chnl=15
char id=251  x=290   y=33    width=21    height=31    xoffset=-3    yoffset=-2    xadvance=16    page=0  chnl=15
char id=252  x=152   y=65    width=19    height=29    xoffset=-2    yoffset=0     xadvance=16    page=0  chnl=15
char id=253  x=455   y=0     width=20    height=32    xoffset=-2    yoffset=-2    xadvance=17    page=0  chnl=15
char id=255  x=68    y=67    width=20    height=30    xoffset=-2    yoffset=0     xadvance=17    page=0  chnl=15
kernings count=166
kerning first=34  second=44  amount=-7  
kerning first=121 second=93  amount=-7  
kerning first=34  second=46  amount=-7  
kerning first=34  second=47  amount=-12 
kerning first=35  second=93  amount=-9  
kerning first=39  second=44  amount=-8  
kerning first=121 second=47  amount=-6  
kerning first=39  second=46  amount=-8  
kerning first=39  second=47  amount=-8  
kerning first=39  second=64  amount=-8  
kerning first=39  second=65  amount=-8  
kerning first=39  second=97  amount=-8  
kerning first=39  second=115 amount=-1  
kerning first=44  second=34  amount=-8  
kerning first=44  second=39  amount=-8  
kerning first=121 second=46  amount=-6  
kerning first=44  second=52  amount=-8  
kerning first=44  second=55  amount=-8  
kerning first=44  second=84  amount=-8  
kerning first=44  second=89  amount=-8  
kerning first=44  second=92  amount=-9  
kerning first=44  second=116 amount=-8  
kerning first=44  second=121 amount=-8  
kerning first=121 second=44  amount=-7  
kerning first=119 second=46  amount=-3  
kerning first=119 second=44  amount=-4  
kerning first=118 second=93  amount=-7  
kerning first=118 second=46  amount=-5  
kerning first=118 second=44  amount=-6  
kerning first=116 second=93  amount=-6  
kerning first=114 second=113 amount=-1  
kerning first=114 second=111 amount=-1  
kerning first=114 second=103 amount=-1  
kerning first=114 second=101 amount=1   
kerning first=114 second=100 amount=1   
kerning first=114 second=46  amount=-2  
kerning first=114 second=44  amount=-1  
kerning first=112 second=93  amount=-9  
kerning first=112 second=47  amount=-7  
kerning first=112 second=46  amount=-9  
kerning first=112 second=44  amount=-9  
kerning first=111 second=93  amount=-6  
kerning first=46  second=34  amount=-8  
kerning first=46  second=39  amount=-8  
kerning first=108 second=92  amount=-7  
kerning first=46  second=52  amount=-8  
kerning first=46  second=55  amount=-8  
kerning first=46  second=63  amount=-8  
kerning first=46  second=84  amount=-8  
kerning first=46  second=89  amount=-8  
kerning first=46  second=92  amount=-8  
kerning first=46  second=116 amount=-8  
kerning first=46  second=121 amount=-8  
kerning first=108 second=39  amount=-7  
kerning first=108 second=34  amount=-8  
kerning first=107 second=111 amount=-2  
kerning first=107 second=101 amount=2   
kerning first=47  second=44  amount=-11 
kerning first=47  second=46  amount=-11 
kerning first=47  second=47  amount=-11 
kerning first=47  second=93  amount=-9  
kerning first=48  second=44  amount=-5  
kerning first=48  second=46  amount=-4  
kerning first=48  second=93  amount=-8  
kerning first=50  second=93  amount=-8  
kerning first=52  second=93  amount=-6  
kerning first=53  second=93  amount=-6  
kerning first=54  second=93  amount=-6  
kerning first=55  second=44  amount=-9  
kerning first=55  second=46  amount=-8  
kerning first=55  second=47  amount=-8  
kerning first=55  second=93  amount=-9  
kerning first=56  second=93  amount=-7  
kerning first=57  second=93  amount=-9  
kerning first=63  second=93  amount=-6  
kerning first=65  second=84  amount=-2  
kerning first=65  second=86  amount=-2  
kerning first=65  second=87  amount=-1  
kerning first=65  second=89  amount=-2  
kerning first=65  second=118 amount=-2  
kerning first=65  second=119 amount=-1  
kerning first=65  second=121 amount=-2  
kerning first=103 second=93  amount=-7  
kerning first=102 second=102 amount=1   
kerning first=102 second=93  amount=-9  
kerning first=67  second=93  amount=-5  
kerning first=68  second=44  amount=-7  
kerning first=68  second=46  amount=-7  
kerning first=68  second=47  amount=-7  
kerning first=68  second=93  amount=-9  
kerning first=102 second=59  amount=-7  
kerning first=102 second=58  amount=-7  
kerning first=70  second=44  amount=-8  
kerning first=70  second=46  amount=-8  
kerning first=70  second=58  amount=-7  
kerning first=70  second=59  amount=-7  
kerning first=70  second=93  amount=-9  
kerning first=70  second=97  amount=-1  
kerning first=71  second=93  amount=-8  
kerning first=75  second=111 amount=-3  
kerning first=75  second=119 amount=1   
kerning first=76  second=34  amount=-8  
kerning first=76  second=39  amount=-7  
kerning first=102 second=46  amount=-8  
kerning first=76  second=79  amount=-2  
kerning first=76  second=86  amount=-3  
kerning first=76  second=89  amount=-4  
kerning first=76  second=92  amount=-7  
kerning first=102 second=44  amount=-8  
kerning first=102 second=34  amount=-1  
kerning first=100 second=93  amount=-9  
kerning first=100 second=47  amount=-7  
kerning first=79  second=44  amount=-4  
kerning first=79  second=46  amount=-3  
kerning first=79  second=93  amount=-6  
kerning first=80  second=44  amount=-9  
kerning first=80  second=46  amount=-9  
kerning first=80  second=47  amount=-7  
kerning first=80  second=65  amount=-3  
kerning first=80  second=93  amount=-9  
kerning first=80  second=97  amount=-3  
kerning first=80  second=101 amount=1   
kerning first=80  second=111 amount=-1  
kerning first=100 second=46  amount=-7  
kerning first=100 second=44  amount=-7  
kerning first=84  second=44  amount=-5  
kerning first=92  second=92  amount=-11 
kerning first=84  second=46  amount=-4  
kerning first=84  second=58  amount=-4  
kerning first=84  second=59  amount=-4  
kerning first=84  second=65  amount=-4  
kerning first=84  second=93  amount=-6  
kerning first=84  second=97  amount=-4  
kerning first=84  second=101 amount=1   
kerning first=84  second=111 amount=-3  
kerning first=84  second=114 amount=1   
kerning first=84  second=115 amount=-1  
kerning first=86  second=44  amount=-6  
kerning first=92  second=39  amount=-8  
kerning first=86  second=46  amount=-5  
kerning first=86  second=58  amount=-2  
kerning first=86  second=59  amount=-2  
kerning first=86  second=65  amount=-4  
kerning first=86  second=93  amount=-7  
kerning first=86  second=97  amount=-4  
kerning first=86  second=111 amount=-2  
kerning first=87  second=44  amount=-4  
kerning first=92  second=34  amount=-9  
kerning first=87  second=46  amount=-3  
kerning first=87  second=58  amount=-1  
kerning first=87  second=59  amount=-1  
kerning first=87  second=65  amount=-3  
kerning first=87  second=79  amount=-1  
kerning first=87  second=97  amount=-3  
kerning first=87  second=101 amount=1   
kerning first=87  second=111 amount=-1  
kerning first=87  second=114 amount=1   
kerning first=89  second=44  amount=-7  
kerning first=89  second=111 amount=-3  
kerning first=89  second=46  amount=-6  
kerning first=89  second=47  amount=-6  
kerning first=89  second=58  amount=-3  
kerning first=89  second=59  amount=-3  
kerning first=89  second=65  amount=-5  
kerning first=89  second=93  amount=-7  
kerning first=89  second=97  amount=-5  
